athanor_artifacts/load_store_unit_signext_factor/logs/lsu_toggle.vcd
$date
	Wed Jul  1 12:45:16 2026
$end
$version
	Icarus Verilog
$end
$timescale
	1ps
$end
$scope module tb $end
$scope module gold $end
$var wire 32 ! adder_result_ex_i [31:0] $end
$var wire 1 " clk_i $end
$var wire 32 # data_addr [31:0] $end
$var wire 32 $ data_addr_o [31:0] $end
$var wire 4 % data_be_o [3:0] $end
$var wire 1 & data_bus_err_i $end
$var wire 1 ' data_gnt_i $end
$var wire 1 ( data_intg_err $end
$var wire 1 ) data_or_pmp_err $end
$var wire 1 * data_pmp_err_i $end
$var wire 32 + data_rdata_i [31:0] $end
$var wire 1 , data_rvalid_i $end
$var wire 32 - data_wdata_o [31:0] $end
$var wire 1 . data_we_o $end
$var wire 1 / fcov_ls_error_exception $end
$var wire 1 0 fcov_ls_first_req $end
$var wire 1 1 fcov_ls_mis_pmp_err_1 $end
$var wire 1 2 fcov_ls_mis_pmp_err_2 $end
$var wire 1 3 fcov_ls_pmp_exception $end
$var wire 1 4 fcov_ls_second_req $end
$var wire 1 5 fcov_mis_rvalid_1 $end
$var wire 1 6 fcov_mis_rvalid_2 $end
$var wire 1 7 load_err_o $end
$var wire 1 8 load_resp_intg_err_o $end
$var wire 32 9 lsu_rdata_o [31:0] $end
$var wire 1 : lsu_rdata_valid_o $end
$var wire 1 ; lsu_req_done_o $end
$var wire 1 < lsu_req_i $end
$var wire 1 = lsu_resp_valid_o $end
$var wire 1 > lsu_sign_ext_i $end
$var wire 2 ? lsu_type_i [1:0] $end
$var wire 32 @ lsu_wdata_i [31:0] $end
$var wire 1 A lsu_we_i $end
$var wire 1 B rst_ni $end
$var wire 1 C split_misaligned_access $end
$var wire 1 D store_err_o $end
$var wire 1 E store_resp_intg_err_o $end
$var wire 1 F unused_fcov_ls_error_exception $end
$var wire 1 G unused_fcov_ls_first_req $end
$var wire 1 H unused_fcov_ls_mis_pmp_err_1 $end
$var wire 1 I unused_fcov_ls_mis_pmp_err_2 $end
$var wire 1 J unused_fcov_ls_pmp_exception $end
$var wire 1 K unused_fcov_ls_second_req $end
$var wire 1 L fcov_mis_bus_err_1_d $end
$var wire 1 M fcov_mis_2_en_d $end
$var wire 2 N data_offset [1:0] $end
$var wire 32 O data_addr_w_aligned [31:0] $end
$var wire 1 P busy_o $end
$var wire 32 Q addr_last_o [31:0] $end
$var wire 32 R addr_last_d [31:0] $end
$var reg 1 S _sv2v_0 $end
$var reg 1 T addr_incr_req_o $end
$var reg 32 U addr_last_q [31:0] $end
$var reg 1 V addr_update $end
$var reg 1 W ctrl_update $end
$var reg 4 X data_be [3:0] $end
$var reg 32 Y data_rdata_ext [31:0] $end
$var reg 1 Z data_req_o $end
$var reg 1 [ data_sign_ext_q $end
$var reg 2 \ data_type_q [1:0] $end
$var reg 32 ] data_wdata [31:0] $end
$var reg 1 ^ data_we_q $end
$var reg 1 _ fcov_mis_2_en_q $end
$var reg 1 ` fcov_mis_bus_err_1_q $end
$var reg 1 a handle_misaligned_d $end
$var reg 1 b handle_misaligned_q $end
$var reg 3 c ls_fsm_cs [2:0] $end
$var reg 3 d ls_fsm_ns [2:0] $end
$var reg 1 e lsu_err_d $end
$var reg 1 f lsu_err_q $end
$var reg 1 g perf_load_o $end
$var reg 1 h perf_store_o $end
$var reg 1 i pmp_err_d $end
$var reg 1 j pmp_err_q $end
$var reg 32 k rdata_b_ext [31:0] $end
$var reg 32 l rdata_h_ext [31:0] $end
$var reg 2 m rdata_offset_q [1:0] $end
$var reg 24 n rdata_q [31:8] $end
$var reg 1 o rdata_update $end
$var reg 32 p rdata_w_ext [31:0] $end
$scope begin g_no_mem_data_ecc $end
$upscope $end
$scope begin g_no_mem_wdata_ecc $end
$upscope $end
$upscope $end
$upscope $end
$scope module tb $end
$scope module gate $end
$var wire 32 q adder_result_ex_i [31:0] $end
$var wire 1 " clk_i $end
$var wire 32 r data_addr [31:0] $end
$var wire 32 s data_addr_o [31:0] $end
$var wire 4 t data_be_o [3:0] $end
$var wire 1 & data_bus_err_i $end
$var wire 1 ' data_gnt_i $end
$var wire 1 u data_intg_err $end
$var wire 1 v data_or_pmp_err $end
$var wire 1 * data_pmp_err_i $end
$var wire 32 w data_rdata_i [31:0] $end
$var wire 1 , data_rvalid_i $end
$var wire 32 x data_wdata_o [31:0] $end
$var wire 1 y data_we_o $end
$var wire 1 z fcov_ls_error_exception $end
$var wire 1 { fcov_ls_first_req $end
$var wire 1 | fcov_ls_mis_pmp_err_1 $end
$var wire 1 } fcov_ls_mis_pmp_err_2 $end
$var wire 1 ~ fcov_ls_pmp_exception $end
$var wire 1 !" fcov_ls_second_req $end
$var wire 1 "" fcov_mis_rvalid_1 $end
$var wire 1 #" fcov_mis_rvalid_2 $end
$var wire 1 $" load_err_o $end
$var wire 1 %" load_resp_intg_err_o $end
$var wire 32 &" lsu_rdata_o [31:0] $end
$var wire 1 '" lsu_rdata_valid_o $end
$var wire 1 (" lsu_req_done_o $end
$var wire 1 < lsu_req_i $end
$var wire 1 )" lsu_resp_valid_o $end
$var wire 1 > lsu_sign_ext_i $end
$var wire 2 *" lsu_type_i [1:0] $end
$var wire 32 +" lsu_wdata_i [31:0] $end
$var wire 1 A lsu_we_i $end
$var wire 1 B rst_ni $end
$var wire 1 ," split_misaligned_access $end
$var wire 1 -" store_err_o $end
$var wire 1 ." store_resp_intg_err_o $end
$var wire 1 /" unused_fcov_ls_error_exception $end
$var wire 1 0" unused_fcov_ls_first_req $end
$var wire 1 1" unused_fcov_ls_mis_pmp_err_1 $end
$var wire 1 2" unused_fcov_ls_mis_pmp_err_2 $end
$var wire 1 3" unused_fcov_ls_pmp_exception $end
$var wire 1 4" unused_fcov_ls_second_req $end
$var wire 1 5" fcov_mis_bus_err_1_d $end
$var wire 1 6" fcov_mis_2_en_d $end
$var wire 2 7" data_offset [1:0] $end
$var wire 32 8" data_addr_w_aligned [31:0] $end
$var wire 1 9" busy_o $end
$var wire 32 :" addr_last_o [31:0] $end
$var wire 32 ;" addr_last_d [31:0] $end
$var reg 1 <" _sv2v_0 $end
$var reg 1 =" addr_incr_req_o $end
$var reg 32 >" addr_last_q [31:0] $end
$var reg 1 ?" addr_update $end
$var reg 1 @" ctrl_update $end
$var reg 4 A" data_be [3:0] $end
$var reg 32 B" data_rdata_ext [31:0] $end
$var reg 1 C" data_req_o $end
$var reg 1 D" data_sign_ext_q $end
$var reg 2 E" data_type_q [1:0] $end
$var reg 32 F" data_wdata [31:0] $end
$var reg 1 G" data_we_q $end
$var reg 1 H" fcov_mis_2_en_q $end
$var reg 1 I" fcov_mis_bus_err_1_q $end
$var reg 1 J" handle_misaligned_d $end
$var reg 1 K" handle_misaligned_q $end
$var reg 3 L" ls_fsm_cs [2:0] $end
$var reg 3 M" ls_fsm_ns [2:0] $end
$var reg 1 N" lsu_err_d $end
$var reg 1 O" lsu_err_q $end
$var reg 1 P" perf_load_o $end
$var reg 1 Q" perf_store_o $end
$var reg 1 R" pmp_err_d $end
$var reg 1 S" pmp_err_q $end
$var reg 32 T" rdata_b_ext [31:0] $end
$var reg 32 U" rdata_h_ext [31:0] $end
$var reg 2 V" rdata_offset_q [1:0] $end
$var reg 24 W" rdata_q [31:8] $end
$var reg 1 X" rdata_update $end
$var reg 32 Y" rdata_w_ext [31:0] $end
$scope begin g_no_mem_data_ecc $end
$upscope $end
$scope begin g_no_mem_wdata_ecc $end
$upscope $end
$upscope $end
$upscope $end
$enddefinitions $end
#0
$dumpvars
b0 Y"
0X"
bx W"
bx V"
b0 U"
b0 T"
xS"
xR"
0Q"
0P"
xO"
xN"
b0 M"
bx L"
xK"
xJ"
xI"
xH"
xG"
b0 F"
bx E"
xD"
0C"
b0 B"
b0 A"
0@"
0?"
bx >"
0="
0<"
b0 ;"
bx :"
x9"
b0 8"
b0 7"
x6"
x5"
04"
x3"
02"
x1"
00"
x/"
0."
x-"
0,"
b0 +"
b0 *"
x)"
x("
0'"
b0 &"
0%"
x$"
0#"
0""
0!"
x~
0}
x|
0{
xz
0y
b0 x
b0 w
xv
0u
b0 t
b0 s
b0 r
b0 q
b0 p
0o
bx n
bx m
b0 l
b0 k
xj
xi
0h
0g
xf
xe
b0 d
bx c
xb
xa
x`
x_
x^
b0 ]
bx \
x[
0Z
b0 Y
b0 X
0W
0V
bx U
0T
0S
b0 R
bx Q
xP
b0 O
b0 N
xM
xL
0K
xJ
0I
xH
0G
xF
0E
xD
0C
0B
0A
b0 @
b0 ?
0>
x=
0<
x;
0:
b0 9
08
x7
06
05
04
x3
02
x1
00
x/
0.
b0 -
0,
b0 +
0*
x)
0(
0'
0&
b0 %
b0 $
b0 #
0"
b0 !
$end
#5000
0F
0/
0/"
0z
07
0$"
0D
0)
0=
0;
0L
0M
0-"
0v
0)"
0("
05"
06"
0J
03
b1111 %
b1111 X
0e
0i
0a
0H
01
03"
0~
b1111 t
b1111 A"
0N"
0R"
0J"
01"
0|
b0 n
0^
0[
b0 \
b0 m
b0 Q
b0 U
0f
0j
0b
0P
b0 c
0`
0_
b0 W"
0G"
0D"
b0 E"
b0 V"
b0 :"
b0 >"
0O"
0S"
0K"
09"
b0 L"
0I"
0H"
1"
#10000
0"
#15000
1"
#20000
0"
#25000
1"
#30000
0"
#35000
1B
1"
#40000
1,"
1C
b1000 t
b1000 A"
b1000 %
b1000 X
b1000100100111010111101111001 &"
b1000100100111010111101111001 B"
b1000100100111010111101111001 9
b1000100100111010111101111001 Y
b11 7"
b1000101010101100111110000010011 ;"
b1000101010101100111110000010000 s
b1000101010101100111110000010000 8"
b11 N
b1000101010101100111110000010011 R
b1000101010101100111110000010000 $
b1000101010101100111110000010000 O
b10000100101001101010101000010010 x
b10000100101001101010101000010010 F"
b10000100101001101010101000010010 -
b10000100101001101010101000010010 ]
b1111001 T"
b1010111101111001 U"
b1000100100111010111101111001 Y"
b1111001 k
b1010111101111001 l
b1000100100111010111101111001 p
b1000101010101100111110000010011 r
b1000101010101100111110000010011 #
b1000101010101100111110000010011 !
b1000101010101100111110000010011 q
b10100110101010100001001010000100 @
b10100110101010100001001010000100 +"
1y
1.
1A
b1000100100111010111101111001 +
b1000100100111010111101111001 w
1'
0"
#45000
1"
#50000
1("
1;
1'"
1:
0,"
0C
b11 t
b11 A"
b11 %
b11 X
b1010101000001000110110001001001 &"
b1010101000001000110110001001001 B"
b1010101000001000110110001001001 9
b1010101000001000110110001001001 Y
1)"
1=
b0 7"
b111101000111011110000101100100 ;"
b111101000111011110000101100100 s
b111101000111011110000101100100 8"
b0 N
b111101000111011110000101100100 R
b111101000111011110000101100100 $
b111101000111011110000101100100 O
10"
1{
1G
10
b11100010111011001000101000010000 x
b11100010111011001000101000010000 F"
b11100010111011001000101000010000 -
b11100010111011001000101000010000 ]
b1001001 T"
b110110001001001 U"
b1010101000001000110110001001001 Y"
b1001001 k
b110110001001001 l
b1010101000001000110110001001001 p
b0 M"
0J"
1?"
1@"
1P"
1C"
b0 d
0a
1V
1W
1g
1Z
b111101000111011110000101100100 r
b111101000111011110000101100100 #
b111101000111011110000101100100 !
b111101000111011110000101100100 q
1<
b11100010111011001000101000010000 @
b11100010111011001000101000010000 +"
b1 ?
b1 *"
0y
0.
0A
b1010101000001000110110001001001 +
b1010101000001000110110001001001 w
1,
0"
#55000
b110110001001001 &"
b110110001001001 B"
b110110001001001 9
b110110001001001 Y
b111101000111011110000101100100 :"
b111101000111011110000101100100 >"
b1 E"
b111101000111011110000101100100 Q
b111101000111011110000101100100 U
b1 \
1"
#60000
b101101001100 &"
b101101001100 B"
b101101001100 9
b101101001100 Y
b100010101001111110111001100000 ;"
b100010101001111110111001100000 s
b100010101001111110111001100000 8"
b100010101001111110111001100000 R
b100010101001111110111001100000 $
b100010101001111110111001100000 O
b1100011010001001100100000110011 x
b1100011010001001100100000110011 F"
b1100011010001001100100000110011 -
b1100011010001001100100000110011 ]
b1 t
b1 A"
b1 %
b1 X
b1001100 T"
b101101001100 U"
b1000001001110010000101101001100 Y"
b1001100 k
b101101001100 l
b1000001001110010000101101001100 p
b100010101001111110111001100000 r
b100010101001111110111001100000 #
b100010101001111110111001100000 !
b100010101001111110111001100000 q
1>
b1100011010001001100100000110011 @
b1100011010001001100100000110011 +"
b10 ?
b10 *"
b1000001001110010000101101001100 +
b1000001001110010000101101001100 w
0"
#65000
b1001100 9
b1001100 Y
b1001100 &"
b1001100 B"
1[
b10 \
b100010101001111110111001100000 Q
b100010101001111110111001100000 U
1D"
b10 E"
b100010101001111110111001100000 :"
b100010101001111110111001100000 >"
1"
#70000
0'"
0:
b10 t
b10 A"
b10 %
b10 X
0("
0;
b11000 &"
b11000 B"
b11000 9
b11000 Y
0)"
0=
b1 7"
b11000010111110101010100001101 ;"
b11000010111110101010100001100 s
b11000010111110101010100001100 8"
b1 N
b11000010111110101010100001101 R
b11000010111110101010100001100 $
b11000010111110101010100001100 O
00"
0{
0G
00
b101011111110011001101100000010 x
b101011111110011001101100000010 F"
b101011111110011001101100000010 -
b101011111110011001101100000010 ]
b11000 T"
b1110000011000 U"
b101111000001000001110000011000 Y"
b11000 k
b1110000011000 l
b101111000001000001110000011000 p
0P"
0@"
0?"
0C"
0g
0W
0V
0Z
b11000010111110101010100001101 r
b11000010111110101010100001101 #
b11000010111110101010100001101 !
b11000010111110101010100001101 q
0<
b10001010111111100110011011 @
b10001010111111100110011011 +"
b11 ?
b11 *"
b101111000001000001110000011000 +
b101111000001000001110000011000 w
0,
0'
0"
#75000
1"
#80000
1'"
1:
b10 M"
1J"
b10 d
1a
0("
0;
1,"
1C
b10101 &"
b10101 B"
b10101 9
b10101 Y
1)"
1=
b11 7"
b10001101100110100000010000010011 ;"
b10001101100110100000010000010000 s
b10001101100110100000010000010000 8"
b11 N
b10001101100110100000010000010011 R
b10001101100110100000010000010000 $
b10001101100110100000010000010000 O
10"
1{
1G
10
b1100000011110011110100001011011 x
b1100000011110011110100001011011 F"
b1100000011110011110100001011011 -
b1100000011110011110100001011011 ]
b1000 t
b1000 A"
b1000 %
b1000 X
b10101 T"
b11111111111111111101100100010101 U"
b11000011100001111101100100010101 Y"
b10101 k
b11111111111111111101100100010101 l
b11000011100001111101100100010101 p
1?"
1@"
1Q"
1C"
1V
1W
1h
1Z
b10001101100110100000010000010011 r
b10001101100110100000010000010011 #
b10001101100110100000010000010011 !
b10001101100110100000010000010011 q
1<
0>
b1111001111010000101101101100000 @
b1111001111010000101101101100000 +"
b0 ?
b0 *"
1y
1.
1A
b11000011100001111101100100010101 +
b11000011100001111101100100010101 w
1,
1'
0"
#85000
0:
1M
0'"
16"
1;
b10001101100110100000010000010000 R
1K
14
1("
b10001101100110100000010000010000 ;"
14"
1!"
b10000111110110010001010100000000 9
b10000111110110010001010100000000 Y
b11000011 k
b1010100000000 l
b10000111110110010001010100000000 p
b111 %
b111 X
0a
b0 d
1T
0h
0W
1V
1Z
0=
15
0G
00
b10000111110110010001010100000000 &"
b10000111110110010001010100000000 B"
b11000011 T"
b1010100000000 U"
b10000111110110010001010100000000 Y"
b111 t
b111 A"
0J"
b0 M"
1="
0Q"
0@"
1?"
1C"
0)"
1""
00"
0{
1^
0[
b0 \
b11 m
b10001101100110100000010000010011 Q
b10001101100110100000010000010011 U
1b
1P
b10 c
1G"
0D"
b0 E"
b11 V"
b10001101100110100000010000010011 :"
b10001101100110100000010000010011 >"
1K"
19"
b10 L"
1"
#90000
0,"
0C
06"
0M
b11010111001000111110000100000000 &"
b11010111001000111110000100000000 B"
b11010111001000111110000100000000 9
b11010111001000111110000100000000 Y
b111101011100111011010011000000 ;"
0("
b111101011100111011010011000000 R
0;
b0 7"
b111101011100111011010011000000 s
b111101011100111011010011000000 8"
b0 N
b111101011100111011010011000000 $
b111101011100111011010011000000 O
b11100110101010100110010011011000 x
b11100110101010100110010011011000 F"
b11100110101010100110010011011000 -
b11100110101010100110010011011000 ]
b1 t
b1 A"
b1 %
b1 X
b101111 T"
b1110000100000000 U"
b11010111001000111110000100000000 Y"
b101111 k
b1110000100000000 l
b11010111001000111110000100000000 p
0""
0?"
0J"
1="
1C"
b100 M"
05
0V
0a
1T
1Z
b100 d
b111101011100111011010011000000 r
b111101011100111011010011000000 #
b111101011100111011010011000000 !
b111101011100111011010011000000 q
1>
b11100110101010100110010011011000 @
b11100110101010100110010011011000 +"
b1 ?
b1 *"
0y
0.
0A
b101111110101110010001111100001 +
b101111110101110010001111100001 w
0,
0"
#95000
04"
0!"
0K
04
b11 t
b11 A"
1="
0C"
b11 %
b11 X
1T
0Z
0K"
b100 L"
0b
b100 c
1"
#100000
16"
1M
b11000111011011101111100000000000 &"
b11000111011011101111100000000000 B"
b11000111011011101111100000000000 9
b11000111011011101111100000000000 Y
1("
b11011000000110011000101011110000 ;"
1;
b11011000000110011000101011110000 R
b11011000000110011000101011110000 s
b11011000000110011000101011110000 8"
b11011000000110011000101011110000 $
b11011000000110011000101011110000 O
b11110111111100100111011111101111 x
b11110111111100100111011111101111 F"
b11110111111100100111011111101111 -
b11110111111100100111011111101111 ]
b1 t
b1 A"
b1 %
b1 X
b11011 T"
b1111100000000000 U"
b11000111011011101111100000000000 Y"
b11011 k
b1111100000000000 l
b11000111011011101111100000000000 p
1""
b0 M"
1?"
1="
15
b0 d
1V
1T
b11011000000110011000101011110000 r
b11011000000110011000101011110000 #
b11011000000110011000101011110000 !
b11011000000110011000101011110000 q
0<
0>
b11110111111100100111011111101111 @
b11110111111100100111011111101111 +"
b10 ?
b10 *"
b11011110001110110111011111000 +
b11011110001110110111011111000 w
1,
0"
#105000
0M
06"
0;
16
0("
1#"
0V
0T
1=
05
0?"
0="
1)"
0""
b11011000000110011000101011110000 Q
b11011000000110011000101011110000 U
0P
b0 c
1_
b11011000000110011000101011110000 :"
b11011000000110011000101011110000 >"
09"
b0 L"
1H"
1"
#110000
b10 t
b10 A"
b10 %
b10 X
1("
1;
b111010011011110110100000000000 &"
b111010011011110110100000000000 B"
b111010011011110110100000000000 9
b111010011011110110100000000000 Y
b1 7"
b111000101011010001010011100001 ;"
b111000101011010001010011100000 s
b111000101011010001010011100000 8"
b1 N
b111000101011010001010011100001 R
b111000101011010001010011100000 $
b111000101011010001010011100000 O
10"
1{
1?"
1@"
1P"
1C"
1G
10
1V
1W
1g
1Z
b11111100000111101011101111001011 x
b11111100000111101011101111001011 F"
b11111100000111101011101111001011 -
b11111100000111101011101111001011 ]
b11110100 T"
b110100000000000 U"
b111010011011110110100000000000 Y"
b11110100 k
b110100000000000 l
b111010011011110110100000000000 p
b111000101011010001010011100001 r
b111000101011010001010011100001 #
b111000101011010001010011100001 !
b111000101011010001010011100001 q
1<
b11001011111111000001111010111011 @
b11001011111111000001111010111011 +"
b11 ?
b11 *"
b11110100001110100110111101101000 +
b11110100001110100110111101101000 w
0"
#115000
1'"
1:
0#"
06
1P"
1@"
1?"
1C"
b1101111 &"
b1101111 B"
b1101111 T"
b11101001101111 U"
b1101000000000000000000000000000 Y"
1g
1W
1V
1Z
b1101111 9
b1101111 Y
b1101111 k
b11101001101111 l
b1101000000000000000000000000000 p
0H"
b111000101011010001010011100001 :"
b111000101011010001010011100001 >"
0G"
b11 E"
b1 V"
0_
b111000101011010001010011100001 Q
b111000101011010001010011100001 U
0^
b11 \
b1 m
1"
#120000
0("
0;
0'"
0:
b10 M"
1J"
b10 d
1a
1,"
1C
b10101110 &"
b10101110 B"
b10101110 9
b10101110 Y
0)"
0=
b11 7"
b1111001111000100100100101011 ;"
b1111001111000100100100101000 s
b1111001111000100100100101000 8"
b11 N
b1111001111000100100100101011 R
b1111001111000100100100101000 $
b1111001111000100100100101000 O
b11110100010110001110111001000111 x
b11110100010110001110111001000111 F"
b11110100010110001110111001000111 -
b11110100010110001110111001000111 ]
b1000 t
b1000 A"
b1000 %
b1000 X
b10101110 T"
b11010101110 U"
b1001000000000000000000000000 Y"
b10101110 k
b11010101110 l
b1001000000000000000000000000 p
1Q"
0P"
1@"
1?"
1C"
1h
0g
1W
1V
1Z
b1111001111000100100100101011 r
b1111001111000100100100101011 #
b1111001111000100100100101011 !
b1111001111000100100100101011 q
1>
b1011000111011100100011111110100 @
b1011000111011100100011111110100 +"
b0 ?
b0 *"
1y
1.
1A
b11100000001101010111000001001 +
b11100000001101010111000001001 w
0,
0"
#125000
b1111001111000100100100101000 R
1K
14
b1111001111000100100100101000 ;"
14"
1!"
b110101011100000100100000000 9
b110101011100000100100000000 Y
b11100 k
b100100000000 l
b110101011100000100100000000 p
b111 %
b111 X
0a
b100 d
1T
0h
0W
0V
1Z
0G
00
b110101011100000100100000000 &"
b110101011100000100100000000 B"
b11100 T"
b100100000000 U"
b110101011100000100100000000 Y"
b111 t
b111 A"
0J"
b100 M"
1="
0Q"
0@"
0?"
1C"
00"
0{
1^
1[
b0 \
b11 m
b1111001111000100100100101011 Q
b1111001111000100100100101011 U
1b
1P
b10 c
1G"
1D"
b0 E"
b11 V"
b1111001111000100100100101011 :"
b1111001111000100100100101011 >"
1K"
19"
b10 L"
1"
#130000
0,"
0C
16"
1M
b10111111011001101000000100000000 &"
b10111111011001101000000100000000 B"
b10111111011001101000000100000000 9
b10111111011001101000000100000000 Y
1("
b10011101101110010011000001100100 ;"
1;
b10011101101110010011000001100100 R
b0 7"
b10011101101110010011000001100100 s
b10011101101110010011000001100100 8"
b0 N
b10011101101110010011000001100100 $
b10011101101110010011000001100100 O
b11001110100001011001011011001000 x
b11001110100001011001011011001000 F"
b11001110100001011001011011001000 -
b11001110100001011001011011001000 ]
b1 t
b1 A"
b1 %
b1 X
b101100 T"
b11111111111111111000000100000000 U"
b10111111011001101000000100000000 Y"
b101100 k
b11111111111111111000000100000000 l
b10111111011001101000000100000000 p
1""
1?"
0J"
1="
1C"
b0 M"
15
1V
0a
1T
1Z
b0 d
b10011101101110010011000001100100 r
b10011101101110010011000001100100 #
b10011101101110010011000001100100 !
b10011101101110010011000001100100 q
0<
b11001110100001011001011011001000 @
b11001110100001011001011011001000 +"
b1 ?
b1 *"
0y
0.
0A
b101100101111110110011010000001 +
b101100101111110110011010000001 w
1,
0"
#135000
06"
0M
0("
1#"
04"
0!"
0;
16
0K
04
b11 t
b11 A"
0?"
0="
0C"
1)"
0""
b11 %
b11 X
0V
0T
0Z
1=
05
1H"
0K"
09"
b0 L"
b10011101101110010011000001100100 :"
b10011101101110010011000001100100 >"
1_
0b
0P
b0 c
b10011101101110010011000001100100 Q
b10011101101110010011000001100100 U
1"
#140000
b11111111101011010111110000000000 &"
b11111111101011010111110000000000 B"
b11111111101011010111110000000000 9
b11111111101011010111110000000000 Y
0)"
16"
0=
1M
b100100100100000000011000 ;"
b100100100100000000011000 s
b100100100100000000011000 8"
b100100100100000000011000 R
b100100100100000000011000 $
b100100100100000000011000 O
10"
1{
1G
10
b11000110101100100011010010000011 x
b11000110101100100011010010000011 F"
b11000110101100100011010010000011 -
b11000110101100100011010010000011 ]
b1 t
b1 A"
b1 %
b1 X
b11111111111111111111111110111111 T"
b111110000000000 U"
b11111111101011010111110000000000 Y"
b11111111111111111111111110111111 k
b111110000000000 l
b11111111101011010111110000000000 p
0#"
06
b11 M"
1P"
1C"
b11 d
1g
1Z
b100100100100000000011000 r
b100100100100000000011000 #
b100100100100000000011000 !
b100100100100000000011000 q
1<
0>
b11000110101100100011010010000011 @
b11000110101100100011010010000011 +"
b10 ?
b10 *"
b10111111111111111010110101111100 +
b10111111111111111010110101111100 w
0,
0'
0"
#145000
0g
1Z
0G
00
0P"
1C"
00"
0{
1P
b11 c
19"
b11 L"
1"
#150000
b10 t
b10 A"
b10 %
b10 X
b11011011001100011010000000000000 &"
b11011011001100011010000000000000 B"
b11011011001100011010000000000000 9
b11011011001100011010000000000000 Y
1("
1;
b1 7"
b10001001110110010110101111011101 ;"
b10001001110110010110101111011100 s
b10001001110110010110101111011100 8"
b1 N
b10001001110110010110101111011101 R
b10001001110110010110101111011100 $
b10001001110110010110101111011100 O
b11100000000110010101001110100001 x
b11100000000110010101001110100001 F"
b11100000000110010101001110100001 -
b11100000000110010101001110100001 ]
b11111111111111111111111111001001 T"
b11111111111111111010000000000000 U"
b11011011001100011010000000000000 Y"
b11111111111111111111111111001001 k
b11111111111111111010000000000000 l
b11011011001100011010000000000000 p
b0 M"
1?"
1@"
1C"
b0 d
1V
1W
1Z
b10001001110110010110101111011101 r
b10001001110110010110101111011101 #
b10001001110110010110101111011101 !
b10001001110110010110101111011101 q
1>
b10100001111000000001100101010011 @
b10100001111000000001100101010011 +"
b11 ?
b11 *"
b11001001110110110011000110100000 +
b11001001110110110011000110100000 w
1,
1'
0"
#155000
1'"
1:
06"
0M
1#"
16
1)"
10"
1{
1P"
1@"
1?"
1C"
b110001 &"
b110001 B"
b110001 T"
b11111111111111111101101100110001 U"
b10100000000000000000000000000000 Y"
1=
1G
10
1g
1W
1V
1Z
b110001 9
b110001 Y
b110001 k
b11111111111111111101101100110001 l
b10100000000000000000000000000000 p
09"
b0 L"
b10001001110110010110101111011101 :"
b10001001110110010110101111011101 >"
0G"
b11 E"
b1 V"
0P
b0 c
b10001001110110010110101111011101 Q
b10001001110110010110101111011101 U
0^
b11 \
b1 m
1"
#160000
0("
0;
1,"
1C
b11111111111111111111111111100001 &"
b11111111111111111111111111100001 B"
b11111111111111111111111111100001 9
b11111111111111111111111111100001 Y
b11 7"
b1111110111010110101100101011 ;"
b1111110111010110101100101000 s
b1111110111010110101100101000 8"
b11 N
b1111110111010110101100101011 R
b1111110111010110101100101000 $
b1111110111010110101100101000 O
00"
0{
0G
00
b11110000111110010011010000000010 x
b11110000111110010011010000000010 F"
b11110000111110010011010000000010 -
b11110000111110010011010000000010 ]
b1000 t
b1000 A"
b1000 %
b1000 X
0P"
0@"
0?"
0C"
0g
0W
0V
0Z
b11111111111111111111111111100001 T"
b10000111100001 U"
b10100101000000000000000000000000 Y"
b11111111111111111111111111100001 k
b10000111100001 l
b10100101000000000000000000000000 p
b1111110111010110101100101011 r
b1111110111010110101100101011 #
b1111110111010110101100101011 !
b1111110111010110101100101011 q
0<
0>
b11111001001101000000001011110000 @
b11111001001101000000001011110000 +"
b0 ?
b0 *"
1y
1.
1A
b1100110001000011110000110100101 +
b1100110001000011110000110100101 w
0"
#165000
06
0#"
0_
0H"
1"
#170000
1("
1;
0'"
0:
0,"
0C
b11 t
b11 A"
b11 %
b11 X
b11111111111111111111111110001111 &"
b11111111111111111111111110001111 B"
b11111111111111111111111110001111 9
b11111111111111111111111110001111 Y
0)"
0=
b0 7"
b10001001111111001111110001110000 ;"
b10001001111111001111110001110000 s
b10001001111111001111110001110000 8"
b0 N
b10001001111111001111110001110000 R
b10001001111111001111110001110000 $
b10001001111111001111110001110000 O
10"
1{
1G
10
b1010001111111000111011100100000 x
b1010001111111000111011100100000 F"
b1010001111111000111011100100000 -
b1010001111111000111011100100000 ]
b11111111111111111111111110001111 T"
b1100010001111 U"
b1001001000000000000000000000000 Y"
b11111111111111111111111110001111 k
b1100010001111 l
b1001001000000000000000000000000 p
b0 M"
0J"
1?"
1@"
1P"
1C"
b0 d
0a
1V
1W
1g
1Z
b10001001111111001111110001110000 r
b10001001111111001111110001110000 #
b10001001111111001111110001110000 !
b10001001111111001111110001110000 q
1<
b1010001111111000111011100100000 @
b1010001111111000111011100100000 +"
b1 ?
b1 *"
0y
0.
0A
b10111000000110001000111101001001 +
b10111000000110001000111101001001 w
0,
0"
#175000
b1000111101001001 &"
b1000111101001001 B"
b1001001 T"
b1000111101001001 U"
b10111000000110001000111101001001 Y"
b1000111101001001 9
b1000111101001001 Y
b1001001 k
b1000111101001001 l
b10111000000110001000111101001001 p
b10001001111111001111110001110000 :"
b10001001111111001111110001110000 >"
0D"
b1 E"
b0 V"
b10001001111111001111110001110000 Q
b10001001111111001111110001110000 U
0[
b1 \
b0 m
1"
#180000
1'"
1:
b11001011101000 &"
b11001011101000 B"
b11001011101000 9
b11001011101000 Y
1)"
1=
b10000001111111010010010001101000 ;"
b10000001111111010010010001101000 s
b10000001111111010010010001101000 8"
b10000001111111010010010001101000 R
b10000001111111010010010001101000 $
b10000001111111010010010001101000 O
b1000010111111011101001100011111 x
b1000010111111011101001100011111 F"
b1000010111111011101001100011111 -
b1000010111111011101001100011111 ]
b1 t
b1 A"
b1 %
b1 X
b11101000 T"
b11001011101000 U"
b10110001100000000011001011101000 Y"
b11101000 k
b11001011101000 l
b10110001100000000011001011101000 p
1P"
1@"
1?"
1C"
1g
1W
1V
1Z
b10000001111111010010010001101000 r
b10000001111111010010010001101000 #
b10000001111111010010010001101000 !
b10000001111111010010010001101000 q
1>
b1000010111111011101001100011111 @
b1000010111111011101001100011111 +"
b10 ?
b10 *"
b10110001100000000011001011101000 +
b10110001100000000011001011101000 w
1,
0"
#185000
b11111111111111111111111111101000 k
b11111111111111111111111111101000 9
b11111111111111111111111111101000 Y
b11111111111111111111111111101000 T"
b11111111111111111111111111101000 &"
b11111111111111111111111111101000 B"
1[
b10 \
b10000001111111010010010001101000 Q
b10000001111111010010010001101000 U
1D"
b10 E"
b10000001111111010010010001101000 :"
b10000001111111010010010001101000 >"
1"
