athanor_artifacts/multdiv_fast_greater_equal_xor_shape/artifacts/gate_toggle.vcd
$date
	Thu Jul  2 06:36:11 2026
$end
$version
	Icarus Verilog
$end
$timescale
	1s
$end
$scope module tb_gate $end
$scope module uut $end
$var wire 34 ! alu_adder_ext_i [33:0] $end
$var wire 32 " alu_adder_i [31:0] $end
$var wire 1 # clk_i $end
$var wire 1 $ data_ind_timing_i $end
$var wire 1 % div_change_sign $end
$var wire 1 & div_en_i $end
$var wire 1 ' div_en_internal $end
$var wire 1 ( div_sel_i $end
$var wire 1 ) div_sign_a $end
$var wire 1 * div_sign_b $end
$var wire 1 + equal_to_zero_i $end
$var wire 68 , imd_val_q_i [67:0] $end
$var wire 1 - is_greater_equal $end
$var wire 1 . mult_en_i $end
$var wire 1 / mult_en_internal $end
$var wire 1 0 mult_sel_i $end
$var wire 1 1 multdiv_en $end
$var wire 1 2 multdiv_ready_id_i $end
$var wire 32 3 op_a_i [31:0] $end
$var wire 32 4 op_b_i [31:0] $end
$var wire 2 5 operator_i [1:0] $end
$var wire 1 6 rem_change_sign $end
$var wire 1 7 rst_ni $end
$var wire 2 8 signed_mode_i [1:0] $end
$var wire 1 9 unused_mult_sel_i $end
$var wire 1 : unused_sva_mul_fsm_idle $end
$var wire 1 ; valid_o $end
$var wire 1 < unused_mac_res_ext $end
$var wire 2 = unused_imd_val [1:0] $end
$var wire 2 > unused_alu_adder_ext [1:0] $end
$var wire 1 ? sva_mul_fsm_idle $end
$var wire 1 @ signed_mult $end
$var wire 32 A res_adder_h [31:0] $end
$var wire 32 B op_denominator_q [31:0] $end
$var wire 32 C one_shift [31:0] $end
$var wire 32 D next_remainder [31:0] $end
$var wire 33 E next_quotient [32:0] $end
$var wire 32 F multdiv_result_o [31:0] $end
$var wire 35 G mac_res_signed [34:0] $end
$var wire 35 H mac_res_ext [34:0] $end
$var wire 34 I mac_res [33:0] $end
$var wire 2 J imd_val_we_o [1:0] $end
$var wire 68 K imd_val_d_o [67:0] $end
$var parameter 32 L RV32M $end
$var reg 1 M _sv2v_0 $end
$var reg 34 N accum [33:0] $end
$var reg 33 O alu_operand_a_o [32:0] $end
$var reg 33 P alu_operand_b_o [32:0] $end
$var reg 1 Q div_by_zero_d $end
$var reg 1 R div_by_zero_q $end
$var reg 5 S div_counter_d [4:0] $end
$var reg 5 T div_counter_q [4:0] $end
$var reg 1 U div_hold $end
$var reg 1 V div_valid $end
$var reg 34 W mac_res_d [33:0] $end
$var reg 3 X md_state_d [2:0] $end
$var reg 3 Y md_state_q [2:0] $end
$var reg 1 Z mult_hold $end
$var reg 1 [ mult_valid $end
$var reg 32 \ op_denominator_d [31:0] $end
$var reg 32 ] op_numerator_d [31:0] $end
$var reg 32 ^ op_numerator_q [31:0] $end
$var reg 32 _ op_quotient_d [31:0] $end
$var reg 32 ` op_quotient_q [31:0] $end
$var reg 34 a op_remainder_d [33:0] $end
$var reg 1 b sign_a $end
$var reg 1 c sign_b $end
$scope begin gen_mult_fast $end
$var reg 16 d mult_op_a [15:0] $end
$var reg 16 e mult_op_b [15:0] $end
$var reg 2 f mult_state_d [1:0] $end
$var reg 2 g mult_state_q [1:0] $end
$upscope $end
$upscope $end
$upscope $end
$enddefinitions $end
$comment Show the parameter values. $end
$dumpall
b10 L
$end
#0
$dumpvars
b0 g
b1 f
b0 e
b0 d
0c
0b
b0 a
b0 `
b0 _
b0 ^
b0 ]
b0 \
0[
0Z
b0 Y
b1 X
b0 W
0V
0U
b0 T
b11111 S
0R
0Q
b111111111111111111111111111111111 P
b1 O
b0 N
0M
b0 K
b0 J
b0 I
b0 H
b0 G
b0 F
b1 E
b0 D
b1 C
b0 B
b0 A
0@
1?
b0 >
b0 =
0<
0;
1:
09
b0 8
07
06
b0 5
b0 4
b0 3
02
01
00
0/
0.
1-
b0 ,
0+
0*
0)
0(
0'
0&
0%
0$
0#
b0 "
b0 !
$end
#5
1#
#10
0#
#15
1#
#20
0#
17
#25
b10101011011010000000000000001010101101101101101 K
b11100101100011011000111111 W
b1010101101101101101 \
b10100111100011001000100010110101 F
b10000000000000000010101011011011 D
b10 >
b11100101100011011000111111 I
b11 J
11
b1010101101101101101 B
b10000000000000000010101011011011 A
b111111111111111111010101001001001 P
b110 X
b1010101101101 a
b1 f
b11100101100011011000111111 G
b11100101100011011000111111 H
b0 N
b10101011011011 e
b1010101101101 d
1'
1/
12
b101001111000110010001000101101010000000000000001010101101101101101 ,
1+
b1010101101101101 "
b1100000000000000000101010110110110 !
b10101011011011 4
b1010101101101 3
1@
b10 8
b11 5
1(
1&
1.
1#
#30
0#
#35
01
b0 J
0'
1;
1V
1U
b11110 S
0:
0?
b1 g
b110 Y
b10000000000000000000000000000000 C
b11111 T
b0 E
0-
b10001100100011101100000100110001100001010110110110110110101010100011 K
b100100101101100110100010111 W
b1010110110110110110101010100011 \
b110010001110110000010011000110 F
b110010001110110000010011000110 D
b100100101101100110100010111 I
b1010110110110110110101010100011 B
b10 =
b10001010101101101101101101010101 A
b111101010100100100100100101010101 P
b0 X
b1000110010001110110000010011000110 a
b10 f
b100100101101100110100010111 G
b100100101101100110100010111 H
b11001000111011 N
b101010110110 e
b110110110101010 d
0/
02
b10001100100011101100000100110001101001010110110110110110101010100011 ,
1$
0+
b101010110110110110110101010100 "
b1100010101011011011011011010101010 !
b1010101101101101101101010101 4
b101010110110110110110101010 3
b1 8
b10 5
0.
1#
#40
0#
#45
b100010010011111101010100111000011011010101010001101001111001011 K
b1111010001010100110001101111100010 W
1<
b1 J
b11011010101010001101001111001011 \
b10001001001111110101010011100 F
b10001001001111110101010011100 D
b0 >
16
1)
1*
b1111010001010100110001101111100010 I
11
b11011010101010001101001111001011 B
b10110110110101010100011010011110 A
1U
1V
b10010010010101010111001011000011 P
b0 X
b10001001001111110101010011100 a
1c
b10 f
b11111010001010100110001101111100010 G
b11111010001010100110001101111100010 H
b1000100100111 N
b1011011011010101 e
b1010001101001111 d
1/
b100010010011111101010100111001011011010101010001101001111001011 ,
b11011011010101010001101001111001 "
b101101101101010101000110100111100 !
b10110110110101010100011010011110 4
b11011011011010101010001101001111 3
b11 8
b11 5
0&
1.
1#
#50
0#
#55
1[
b10 g
1'
b11 J
b110100111100101100100001001100 \
b1101010101100010110110001111101 D
06
0)
0*
0<
b1100011000101111001001100010111 I
b100100110001011101101100011111010000110100111100101100100001001100 K
11
b110100111100101100100001001100 B
b1 =
b11010001101001111001011001000010 A
0U
1V
b101011100101100001101001101111011 P
b0 X
b1101010101100010110110001111101 a
b10010011000101110110110001111101 W
b0 f
b1100011000101111001001100010111 G
b1100011000101111001001100010111 H
b110101010110001 N
0c
b1001011001000010 e
b1010100011010011 d
b10010011000101110110110001111101 F
0/
12
b11010101011000101101100011111010100110100111100101100100001001100 ,
0$
1+
b1000110100111100101100100001001 "
b110100011010011110010110010000100 !
b1010001101001111001011001000010 4
b10101000110100111100101100100001 3
0@
b0 8
b0 5
0(
1&
0.
1#
#60
0#
#65
b11111 S
b0 Y
b1000000000000000000000000000000 C
b11110 T
b1000000000000000000000000000000 E
1-
1%
b1101110010100100010111010010010010110010000100110010010010011101 K
b110111001010010001011101001001 F
1<
b10110010000100110010010010011101 \
b1100101100100001001100100100100 D
b1 >
16
1)
b1111111000000110000011011100101001 I
01
b0 J
b10110010000100110010010010011101 B
b0 =
b1100101100100001001100100100100 A
0U
0V
b110100110111101100110110110111 P
b110 X
b11110010110010000100110010010010 a
1Z
1b
1[
b0 f
b110111001010010001011101001001 W
b11111111000000110000011011100101001 G
b11111111000000110000011011100101001 H
b1000101100001001 N
b1001100100100100 e
b1111001011001000 d
0'
02
b100010110000100100010111010010010010110010000100110010010010011101 ,
b10010110010000100110010010010011 "
b11001011001000010011001001001001 !
b11100101100100001001100100100100 4
b11110010110010000100110010010010 3
1@
b1 8
19
10
0&
1#
#70
0#
#75
b0 E
0-
0%
b110100001111110111100101000000011001001001001110100100101011011 K
b11010000111111011110010100000 F
b11001001001001110100100101011011 \
b10101110001000000110000111000 D
06
0)
0;
0<
b11010000111111011110010100000 I
11
b11 J
b11001001001001110100100101011011 B
b10 =
b100110010010010011101001001010 A
b110110011011011011000101101101011 P
b1 X
b10011001001001001110100100101 a
b11111 S
0Z
0[
b11 f
b11010000111111011110010100000 W
b11010000111111011110010100000 G
b11010000111111011110010100000 H
b10101110001000000110000111000 N
0b
b11101001001010 e
b1001100100100 d
1'
b101011100010000001100001110001011001001001001110100100101011011 ,
1$
0+
b10011001001001001110100100101011 "
b1001100100100100111010010010101 !
b100110010010010011101001001010 4
b10011001001001001110100100101 3
b10 8
b1 5
09
00
1&
1#
#80
0#
#85
b100111010010010101101100011101 ]
b1 Y
b10000000000000000000000000000000 C
b11111 T
b0 E
0-
b10101111000011110110001110001000 W
b11010010010101101100011101101101 \
b10010011000110000110111110110101 D
b10 >
b10101111000011110110001110001000 I
b100100110001100001101111101101010011010010010101101100011101101101 K
01
b0 J
b11010010010101101100011101101101 B
b0 =
b11001110100100101011011000111011 A
b110110001011011010100100111000101 P
b10 X
b10010011000110000110111110110101 a
b11111 S
b11 f
b10101111000011110110001110001000 G
b10101111000011110110001110001000 H
b10010011000110000110111110110101 N
b1011011000111011 e
b10011101001001 d
b10010011000110000110111110110101 F
0'
b100100110001100001101111101101010011010010010101101100011101101101 ,
0$
1+
b111010010010101101100011101101 "
b1110011101001001010110110001110110 !
b1001110100100101011011000111011 4
b100111010010010101101100011101 3
b11 5
1(
19
10
0&
1#
#90
0#
#95
b10000000000000000000000000000000 E
1-
b10110001110110110101100001110101 \
b101101100011101101101011000011 D
b11 >
1;
b1001010001010000001101110010000 I
b110111001000000001000011100110010110001110110110101100001110101 K
b11 J
11
b10110001110110110101100001110101 B
b101101100011101101101011000011 A
b101010010011100010010010100111101 P
b1010110110001110110110101100001 ]
b10 X
b1010001011111110110000100001110011 a
b11111 S
1Z
1[
b11011100100000000100001110011 W
b0 f
b1001010001010000001101110010000 G
b1001010001010000001101110010000 H
b1000101111111011 N
b1101101011000011 e
b101011011000111 d
b11011100100000000100001110011 F
1'
0/
b10100010111111101100001000011100110010110001110110110101100001110101 ,
b10110110001110110110101100001110 "
b1001011011000111011011010110000111 !
b10101101100011101101101011000011 4
b1010110110001110110110101100001 3
0@
b0 8
b0 5
0(
09
00
1&
1.
1#
#100
0#
#105
b10 Y
b1010110110001110110110101100001 ^
b100010000110001010001111011000010010110110101100001110101000100001 K
b10001000011000101000111101100001 F
b10110110101100001110101000100001 \
b110110101100001110101000100001 D
b11001000100110111000100001100010 I
01
b0 J
b11010110000111010100010000111110 B
b11 =
b110110101100001110101000100001 A
b10010010100111100010101110111101 P
b1010110110001110110110101100001 ]
b11 X
b0 a
b11111 S
1Z
1[
b0 f
b10001000011000101000111101100001 W
b11001000100110111000100001100010 G
b11001000100110111000100001100010 H
b1101001000001010 N
b1110101000100001 e
b1101101101011000 d
0'
b110100100000101010001111011000011111010110000111010100010000111110 ,
1$
b11011010110000111010100010000111 "
b1001101101011000011101010001000011 !
b10110110101100001110101000100001 4
b11011011010110000111010100010000 3
19
10
0&
0.
1#
#110
0#
#115
b10000000100000011100010000110011100000111010100010000111110001101000 K
b10000001110001000011001110 F
b10111010100010000111110001101000 D
b0 >
0;
b1000000010000001110001000011001110 I
11
b11 J
b1010001000011111000110100000010 B
b10111010100010000111110001101000 A
b110001010111011110000011100101111 P
b111010100010000111110001101000 \
b11 X
b0 a
b11111 S
0Z
0[
b11 f
b1000000010000001110001000011001110 W
b1000000010000001110001000011001110 G
b1000000010000001110001000011001110 H
b111110011110011100011110100101110 N
b111110001101000 e
b1110101000100 d
1'
12
b1111100111100111000111101001011101101010001000011111000110100000010 ,
0+
b11101010001000011111000110100000 "
b101110101000100001111100011010000 !
b111010100010000111110001101000 4
b11101010001000011111000110100 3
1@
b10 8
b1 5
1&
1#
#120
0#
#125
b100111110101110111110110111101111 O
b11 Y
b0 E
0-
b1010011111101011001101111101101110 W
b10011111010111011111011011110111 D
b10 >
1<
b1010011111101011001101111101101110 I
b1001111101011101111101101111011110011100011010000001010001001100101 K
01
b0 J
b11100011010000001010001001100101 B
b0 =
b10011111000110100000010100010011 A
b111001011111101011101100110101 P
b11100011010000001010001001100101 \
b11 X
b100111110101110111110110111101111 a
b11110 S
b11 f
b11010011111101011001101111101101110 G
b11010011111101011001101111101101110 H
b1010011111010111011111011011110111 N
b10100010011 e
b111110001101 d
b10011111010111011111011011110111 F
0'
02
b10100111110101110111110110111101110011100011010000001010001001100101 ,
0$
1+
b1111100011010000001010001001100 "
b1100111110001101000000101000100110 !
b11111000110100000010100010011 4
b1111100011010000001010001001 3
0@
b0 8
b10 5
1(
09
00
0&
1#
#130
0#
#135
b10000000000000000000000000000000 _
b10000000000000000000000000000000 E
1-
1%
b1011100000110001110110011101010001 W
b101000100110010100110111110101 \
b1010001001100101001101111 D
b11 >
1*
b1011100000110001110110011101010001 I
b10111000001100011101100111010100010000101000100110010100110111110101 K
11
b11 J
b101000100110010100110111110101 B
b1010001001100101001101111 A
b110101110110011010110010000010101 P
b101011011010101110001101000100111 O
b10100010011001010011011111 a
b11 f
b11011100000110001110110011101010001 G
b11011100000110001110110011101010001 H
b1010101101101010111000110100010011 N
b1100101001101111 e
b100000010100010 d
b11100000110001110110011101010001 F
1'
12
b10101011011010101110001101000100110000101000100110010100110111110101 ,
b101000100110010100110111110 "
b1000000010100010011001010011011111 !
b10000001010001001100101001101111 4
b1000000101000100110010100110111 3
1@
b11 8
b1 5
0(
19
10
1&
1#
#140
0#
#145
b11101 S
b10000000000000000000000000000000 `
b1000000000000000000000000000000 C
b11110 T
b11000000000000000000000000000000 E
0%
1-
b1001010000110010000011011110110001010011011111010111010001010100 K
b100101000011001000001101111011 F
b1010011011111010111010001010100 \
b110010100110111110101110100010 D
b1 >
0*
1;
0<
b10001101000110110010010100001100 I
b1 J
b1010011011111010111010001010100 B
b1 =
b110010100110111110101110100010 A
b101011001000001010001011101010111 P
b11100110101001010000011011110111 O
b11000000000000000000000000000000 _
b1100101001101111101011101000100 a
1[
b100101000011001000001101111011 W
b0 f
b10001101000110110010010100001100 G
b10001101000110110010010100001100 H
b111001101010010 N
b1110101110100010 e
b1001100101001101 d
0'
1/
b10011100110101001010000011011110110101010011011111010111010001010100 ,
b11001010011011111010111010001010 "
b1100101001101111101011101000101 !
b110010100110111110101110100010 4
b10011001010011011111010111010001 3
0@
b0 8
b0 5
0&
1.
1#
#150
0#
#155
1:
1?
b0 g
b1011101000101010011101000111001 \
b1111010111010001010100111010001 D
b11 >
0;
b111000010100100111100101101000 I
b111101011101000101010011101000100001011101000101010011101000111001 K
b11 J
b1011101000101010011101000111001 B
b0 =
b1111010111010001010100111010001 A
b101000101110101011000101110001101 P
b101100001100100010010000111000001 O
b11000000000000000000000000000000 _
b11110101110100010101001110100010 a
0[
b1 f
b111000010100100111100101101000 W
b111000010100100111100101101000 G
b111000010100100111100101101000 H
b0 N
b1010100111010001 e
b101010011101000 d
b10110000110010001001000011100000 F
1'
b11101100001100100010010000111000000001011101000101010011101000111001 ,
0+
b11101011101000101010011101000111 "
b1011110101110100010101001110100011 !
b11111010111010001010100111010001 4
b1111101011101000101010011101000 3
b10 5
1(
09
00
1&
1#
#160
0#
#165
b11100000000000000000000000000000 E
b11100 S
b11000000000000000000000000000000 `
b100000000000000000000000000000 C
b11101 T
0:
0?
b1 g
b10101001110100011100110111010010001001110100011100110111010010010 K
b1001100100111010000001110110 W
b1001110100011100110111010010010 \
b11110100001011100100010111001010 F
b101010011101000111001101110100 D
b1 >
b1001100100111010000001110110 I
b1001110100011100110111010010010 B
b11 =
b101010011101000111001101110100 A
b101100010111000110010001011011011 P
b111101000010111001000101110010101 O
b11100000000000000000000000000000 _
b1010100111010001110011011101001 a
b10 f
b1001100100111010000001110110 G
b1001100100111010000001110110 H
b1111010000101110 N
b10101001110100 e
b11100110111010 d
0/
b1111101000010111001000101110010101101001110100011100110111010010010 ,
1$
b10101001110100011100110111010010 "
b1010100111010001110011011101001 !
b101010011101000111001101110100 4
b10101001110100011100110111010 3
1@
b1 8
19
10
0.
1#
#170
0#
#175
b11110000000000000000000000000000 E
b11011 S
b11100000000000000000000000000000 `
b10000000000000000000000000000 C
b11100 T
b1110011011101001001010011111000010011011101001001010011111010001 K
1%
b10000100010000111100010100111 W
b10011011101001001010011111010001 \
b10000001011001001111011110011010 F
b11100110111010010010100111110 D
16
1)
b10000100010000111100010100111 I
01
b0 J
b10011011101001001010011111010001 B
b0 =
b11100110111010010010100111110 A
b11001000101101101011000001011101 P
b100000010110010011110111100110101 O
b11110000000000000000000000000000 _
b111001101110100100101001111100 a
b10 f
b10000100010000111100010100111 G
b10000100010000111100010100111 H
b1000000101100100 N
b1110011011101 e
b1001001010011111 d
0'
b1100000010110010011110111100110100010011011101001001010011111010001 ,
0$
b1110011011101001001010011111010 "
b111001101110100100101001111101 !
b11100110111010010010100111110 4
b10001110011011101001001010011111 3
b11 8
b11 5
0&
1#
#180
0#
#185
b100100101001111101000110111010100000101001111101000110111010111110 K
b111100000011111011000001010110 W
b101001111101000110111010111110 \
b11101101111100001100010111000001 F
b1001001010011111010001101110101 D
b11 >
b111100000011111011000001010110 I
11
b11 J
b101001111101000110111010111110 B
b11 =
b1001001010011111010001101110101 A
b110101100000101110010001010000011 P
b111011011111000011000101110000011 O
b11110000000000000000000000000000 _
b10010010100111110100011011101010 a
b10 f
b111100000011111011000001010110 G
b111100000011111011000001010110 H
b1110110111110000 N
b100100101001111 e
b1101000110111010 d
1'
02
b111011011111000011000101110000011100101001111101000110111010111110 ,
1$
1+
b100101001111101000110111010111 "
b1010010010100111110100011011101011 !
b1001001010011111010001101110101 4
b10100100101001111101000110111010 3
b1 8
b10 5
1&
1#
#190
0#
#195
b11010 S
b11110000000000000000000000000000 `
b1000000000000000000000000000 C
b11011 T
b110100011011101011111001001101110000011011101011111001001101110100 K
b11111000000000000000000000000000 E
1-
b1111101110110011010111000111011111 W
b11011101011111001001101110100 \
b1100001011001100011101010110011 F
b1101000110111010111110010011011 D
06
0)
1*
1<
b1111101110110011010111000111011111 I
b1 J
b11011101011111001001101110100 B
b1 =
b1101000110111010111110010011011 A
b111001000101000001101100100010111 P
b11000010110011000111010101100111 O
b11111000000000000000000000000000 _
b11010001101110101111100100110111 a
1c
b10 f
b11111101110110011010111000111011111 G
b11111101110110011010111000111011111 H
b110000101100110 N
b1110100011011101 e
b1011111001001101 d
0'
1/
12
b10011000010110011000111010101100110100011011101011111001001101110100 ,
0$
b10100011011101011111001001101110 "
b1011010001101110101111100100110111 !
b11101000110111010111110010011011 4
b11110100011011101011111001001101 3
b10 8
b11 5
09
00
0&
1.
1#
#200
0#
#205
1b
b10 g
b101111100100110111010011101010010011100100110111010011101010010110 K
b1010010101010001001100000110000111 W
1<
b11100100110111010011101010010110 \
b11011110101110101001000011001011 F
b1011111001001101110100111010100 D
b1 >
16
1)
0*
b1010010101010001001100000110000111 I
b11 J
b11100100110111010011101010010110 B
b11 =
b1011111001001101110100111010100 A
b110110010001011000101011010011 P
b110111101011101010010000110010111 O
b11111000000000000000000000000000 _
b10111110010011011101001110101001 a
b11 f
b11010010101010001001100000110000111 G
b11010010101010001001100000110000111 H
b1011011110101110101001000011001011 N
0c
b1110100111010100 e
b1010111110010011 d
1'
02
b10110111101011101010010000110010111111100100110111010011101010010110 ,
1$
b1111100100110111010011101010010 "
b10111110010011011101001110101001 !
b1011111001001101110100111010100 4
b10101111100100110111010011101010 3
b1 8
b10 5
1&
1#
#210
0#
#215
b11111100000000000000000000000000 E
1;
1Z
1[
b11001 S
b11 g
b11111000000000000000000000000000 `
b100000000000000000000000000 C
b11010 T
b11101001110101001011000011011010001001110101001011000011011010001 K
b1111100110101011011111001110100110 W
b1001110101001011000011011010001 \
b10110100001001001011111111011010 F
b111010011101010010110000110110 D
1<
b1111100110101011011111001110100110 I
b0 J
01
b1001110101001011000011011010001 B
b0 =
b111010011101010010110000110110 A
b101100010101101001111001001011101 P
b101101000010010010111111110110101 O
b11111100000000000000000000000000 _
b1110100111010100101100001101101 a
b0 f
b11111100110101011011111001110100110 G
b11111100110101011011111001110100110 H
b11011010000100100 N
1b
b1011101001110101 e
b1101110100111010 d
0'
0/
b1101101000010010010111111110110100001001110101001011000011011010001 ,
0$
0+
b11101001110101001011000011011010 "
b1110100111010100101100001101101 !
b10111010011101010010110000110110 4
b11011101001110101001011000011011 3
19
10
0&
0.
1#
#220
0#
#225
b1111100101011110010110100110101110 W
b1100001101101000100010110001001 \
b11001011000011011010001000101100 D
b0 >
b1111100101011110010110100110101110 I
b11111001010111100101101001101011100001100001101101000100010110001001 K
b1100001101101000100010110001001 B
b11001011000011011010001000101100 A
b100111100100101110111010011101101 P
b101111111110000011001111000011001 O
b11111100000000000000000000000000 _
b110010110000110110100010001011001 a
1Z
1[
b0 f
b11111100101011110010110100110101110 G
b11111100101011110010110100110101110 H
b1111111111111111111011111111100000 N
1b
b100101100001101 e
b1010010110000110 d
b11100101011110010110100110101110 F
b11101111111110000011001111000011000001100001101101000100010110001001 ,
b101100001101101000100010110001 "
b110010110000110110100010001011000 !
b1001011000011011010001000101100 4
b10100101100001101101000100010110 3
b11 8
b1 5
0(
1#
#230
0#
#235
b1 J
b1001001100111100000110101001100 F
b10010011001111000001101010011000000010001011000100101000000111011 K
b11111100000000000000000000000000 E
0%
11
1-
1/
b1001001100111100000110101001100 W
b10001011000100101000000111011 \
b1101000100010110001001010000001 D
b11 >
06
0)
0<
b1001001100111100000110101001100 I
b10001011000100101000000111011 B
b10 =
b1101000100010110001001010000001 A
b111011101001110110101111110001001 P
b1000111101010101001010011000001 O
b11111100000000000000000000000000 _
b11010001000101100010010100000011 a
0Z
1[
b0 f
b1001001100111100000110101001100 G
b1001001100111100000110101001100 H
b10001111010101 N
0b
b110100010001011 e
b1011010001000101 d
12
b1000111101010101001010011000001000010001011000100101000000111011 ,
1$
b10100010001011000100101000000111 "
b1011010001000101100010010100000011 !
b1101000100010110001001010000001 4
b10110100010001011000100101000000 3
0@
b0 8
b0 5
09
00
1.
1#
#240
0#
#245
0;
1:
1?
b0 g
b11111000000000000000000000000000 E
0-
b11011110001100100100000000000 F
b110111100011001001000000000000010010100000011101110100000001101 K
b11011110001100100100000000000 W
b10010100000011101110100000001101 \
b10000010100011100110010001101101 D
b0 >
b11011110001100100100000000000 I
b11 J
b10010100000011101110100000001101 B
b0 =
b11000100101000000111011101000000 A
b11010111111000100010111111100101 P
b100000101000111001100100011011011 O
b11111000000000000000000000000000 _
b100000101000111001100100011011011 a
0Z
0[
b1 f
b11011110001100100100000000000 G
b11011110001100100100000000000 H
b0 N
b111011101000000 e
b11101110100000 d
1'
0/
02
b100000101000111001100100011011010010010100000011101110100000001101 ,
0$
1+
b10010100000011101110100000001 "
b110001001010000001110111010000000 !
b11000100101000000111011101000000 4
b1100010010100000011101110100000 3
1&
0.
1#
#250
0#
#255
b11000 S
b10000000000000000000000000 C
b11001 T
b1011000101101110010001000 F
b10110001011011100100010000010111010000000110101010010001111 K
b1011000101101110010001000 W
b10111010000000110101010010001111 \
b1001000011010000101101001101 D
b1011000101101110010001000 I
b1 J
b10111010000000110101010010001111 B
b10 =
b10011101110100000001101010100100 A
b10001011111110010101011011100001 P
b10010000110100001011010011011 O
b10010000110100001011010011010 a
b1 f
b1011000101101110010001000 G
b1011000101101110010001000 H
b0 N
b1101010100100 e
b110101010010 d
0'
1/
12
b1000010010000110100001011010011011010111010000000110101010010001111 ,
1$
b1110111010000000110101010010001 "
b100111011101000000011010101001000 !
b11101110100000001101010100100 4
b1110111010000000110101010010 3
1@
b1 8
19
10
0&
1.
1#
#260
0#
#265
0:
0?
b1 g
b11111000000000000000000000000000 _
b11111000000000000000000000000000 E
0-
b11101111010101110010111100 W
b0 J
b11010101001000111110011111000110 \
b11010010110001010010011110011111 D
b11101111010101110010111100 I
b1101001011000101001001111001111100011010101001000111110011111000110 K
01
b11010101001000111110011111000110 B
b11 =
b10000110101010010001111100111110 A
b1010101101110000011000001110011 P
b110100101100010100100111100111111 O
b110100101100010100100111100111110 a
b10 f
b11101111010101110010111100 G
b11101111010101110010111100 H
b1101001011000101 N
b11010101001 e
b1000111110011111 d
b11010010110001010010011110011111 F
0/
b10110100101100010100100111100111111111010101001000111110011111000110 ,
b11010101001000111110011111000 "
b100001101010100100011111001111100 !
b110101010010001111100111110 4
b11010101001000111110011111 3
b11 8
b11 5
1(
0.
1#
#270
0#
#275
b11111001111100011010100011100100 \
b1011001111100011011010001010111 D
b10 >
b110111101110000010110010111110 I
b1011001011111010110100010101110011111001111100011010100011100100 K
11
b11 J
b11111001111100011010100011100100 B
b1 =
b11000111110011111000110101000111 A
b1100000111001010111000110111 P
b10110011111000110110100010101111 O
b10110011111000110110100010101110 a
b101100101111101011010001010111 W
b10 f
b110111101110000010110010111110 G
b110111101110000010110010111110 H
b101100111110001 N
b100011111001111 e
b1100011010100011 d
b101100101111101011010001010111 F
1'
02
b10010110011111000110110100010101110111111001111100011010100011100100 ,
0$
b11111001111100011010100011100 "
b1110001111100111110001101010001110 !
b1000111110011111000110101000111 4
b100011111001111100011010100011 3
b1 8
b0 5
0(
09
00
1&
1#
#280
0#
#285
b10111 S
b1000000000000000000000000 C
b11000 T
b11111001000000000000000000000000 _
b11111001000000000000000000000000 E
1%
1-
b11111001100111000011011000011001110001101010001110010000100100011101 K
b11100110011100001101100001100111 F
1<
b1101010001110010000100100011101 \
b1100011010100011100100001001000 D
b1 >
1*
b1111100110011100001101100001100111 I
b1101010001110010000100100011101 B
b0 =
b1100011010100011100100001001000 A
b100101011100011011110110111000101 P
b101111010000001110011100001010011 O
b11000110101000111001000010010001 a
1c
b10 f
b1111100110011100001101100001100111 W
b11111100110011100001101100001100111 G
b11111100110011100001101100001100111 H
b1011110100000011 N
b1110001101010001 e
b1110010000100100 d
b101111010000001110011100001010010001101010001110010000100100011101 ,
b10001101010001110010000100100011 "
b11000110101000111001000010010001 !
b11100011010100011100100001001000 4
b11110001101010001110010000100100 3
b10 8
b1 5
1#
#290
0#
#295
b11111001100000000000000000000000 E
b10110 S
b11111001000000000000000000000000 `
b100000000000000000000000 C
b10111 T
b1101000110011100001000110110 F
b11010001100111000010001101100001000010010001110101100101101001 K
0%
b1101000110011100001000110110 W
0<
b1000010010001110101100101101001 \
b11110010000100100011101011001011 D
b10 >
0*
b1101000110011100001000110110 I
b1000010010001110101100101101001 B
b11110010000100100011101011001011 A
b101111011011100010100110100101101 P
b101101110001110000001000001101001 O
b11111001100000000000000000000000 _
b111100100001001000111010110010111 a
b10 f
b1101000110011100001000110110 G
b1101000110011100001000110110 H
b1011011100011100 N
0c
b111001000010010 e
b1110101100101 d
1/
12
b11101101110001110000001000001101000001000010010001110101100101101001 ,
0+
b11001000010010001110101100101101 "
b1111100100001001000111010110010110 !
b1110010000100100011101011001011 4
b111001000010010001110101100101 3
1.
1#
#300
0#
#305
b10101 S
b11111001100000000000000000000000 `
b10000000000000000000000 C
b10110 T
b10 g
b11111001100000000000000000000000 E
0-
b110001101000100101001011000010001 W
b11010110010110100111001001100000 \
b1010010000110110100001011110110 D
b110001101000100101001011000010001 I
b101001000011011010000101111011000011010110010110100111001001100000 K
b1 J
b11010110010110100111001001100000 B
b1 =
b10001110101100101101001110010011 A
b1010011010010110001101100111111 P
b10100100001101101000010111101101 O
b11111001100000000000000000000000 _
b10100100001101101000010111101100 a
b11 f
b110001101000100101001011000010001 G
b110001101000100101001011000010001 H
b101010010000110110100001011110110 N
b1101001110010011 e
b100011101011001 d
b1010010000110110100001011110110 F
0'
b1010100100001101101000010111101100111010110010110100111001001100000 ,
b111010110010110100111001001100 "
b1100011101011001011010011100100110 !
b10001110101100101101001110010011 4
b1000111010110010110100111001001 3
0@
b0 8
b10 5
1(
0&
1#
#310
0#
#315
1<
1;
1[
1c
b11 g
b10101011110100011001010000010011100100110000011111111101011 K
1%
b1111100101011101101011011000110011 W
b10011100100110000011111111101011 \
b101010111101000110010100 F
b101010111101000110010100 D
1*
b1111100101011101101011011000110011 I
b11 J
b10011100100110000011111111101011 B
b10 =
b10110100111001001100000111111111 A
b11000110110011111000000000101001 P
b1010101111010001100101001 O
b1010101111010001100101000 a
b0 f
b11111100101011101101011011000110011 G
b11111100101011101101011011000110011 H
b10101011 N
b1011010011100100 e
b101101001110010 d
1'
b1010101111010001100101001010011100100110000011111111101011 ,
1$
b11010011100100110000011111111101 "
b1101101001110010011000001111111110 !
b10110100111001001100000111111111 4
b1011010011100100110000011111111 3
1@
b11 8
b11 5
19
10
1&
1#
#320
0#
#325
0;
b10100 S
b1000000000000000000000 C
b10101 T
1:
1?
b0 g
b11111001101000000000000000000000 _
b11000001111111110101111111101100000001111111110101111111101111010 K
b11111001101000000000000000000000 E
0%
1-
1/
b11000111000110001101110000001111 W
0<
b1111111110101111111101111010 \
b11100100011100110110000110110000 F
b110000011111111101011111111011 D
b11 >
0*
b11000111000110001101110000001111 I
b1111111110101111111101111010 B
b11 =
b110000011111111101011111111011 A
b111100000000010100000000100001011 P
b111001000111001101100001101100001 O
b1100000111111111010111111110110 a
0Z
0[
b1 f
b11000111000110001101110000001111 G
b11000111000110001101110000001111 H
b0 N
0c
b1101011111111011 e
b1110101111111101 d
02
b11111001000111001101100001101100001100001111111110101111111101111010 ,
b11000001111111110101111111101111 "
b1001100000111111111010111111110111 !
b110000011111111101011111111011 4
b10011000001111111110101111111101 3
b10 8
1#
#330
0#
