athanor_artifacts/multdiv_fast_greater_equal_xor_shape/artifacts/gold_toggle.vcd
$date
	Thu Jul  2 06:36:11 2026
$end
$version
	Icarus Verilog
$end
$timescale
	1s
$end
$scope module tb_gold $end
$scope module uut $end
$var wire 34 ! alu_adder_ext_i [33:0] $end
$var wire 32 " alu_adder_i [31:0] $end
$var wire 1 # clk_i $end
$var wire 1 $ data_ind_timing_i $end
$var wire 1 % div_change_sign $end
$var wire 1 & div_en_i $end
$var wire 1 ' div_en_internal $end
$var wire 1 ( div_sel_i $end
$var wire 1 ) div_sign_a $end
$var wire 1 * div_sign_b $end
$var wire 1 + equal_to_zero_i $end
$var wire 68 , imd_val_q_i [67:0] $end
$var wire 1 - mult_en_i $end
$var wire 1 . mult_en_internal $end
$var wire 1 / mult_sel_i $end
$var wire 1 0 multdiv_en $end
$var wire 1 1 multdiv_ready_id_i $end
$var wire 32 2 op_a_i [31:0] $end
$var wire 32 3 op_b_i [31:0] $end
$var wire 2 4 operator_i [1:0] $end
$var wire 1 5 rem_change_sign $end
$var wire 1 6 rst_ni $end
$var wire 2 7 signed_mode_i [1:0] $end
$var wire 1 8 unused_mult_sel_i $end
$var wire 1 9 unused_sva_mul_fsm_idle $end
$var wire 1 : valid_o $end
$var wire 1 ; unused_mac_res_ext $end
$var wire 2 < unused_imd_val [1:0] $end
$var wire 2 = unused_alu_adder_ext [1:0] $end
$var wire 1 > sva_mul_fsm_idle $end
$var wire 1 ? signed_mult $end
$var wire 32 @ res_adder_h [31:0] $end
$var wire 32 A op_denominator_q [31:0] $end
$var wire 32 B one_shift [31:0] $end
$var wire 32 C next_remainder [31:0] $end
$var wire 33 D next_quotient [32:0] $end
$var wire 32 E multdiv_result_o [31:0] $end
$var wire 35 F mac_res_signed [34:0] $end
$var wire 35 G mac_res_ext [34:0] $end
$var wire 34 H mac_res [33:0] $end
$var wire 2 I imd_val_we_o [1:0] $end
$var wire 68 J imd_val_d_o [67:0] $end
$var parameter 32 K RV32M $end
$var reg 1 L _sv2v_0 $end
$var reg 34 M accum [33:0] $end
$var reg 33 N alu_operand_a_o [32:0] $end
$var reg 33 O alu_operand_b_o [32:0] $end
$var reg 1 P div_by_zero_d $end
$var reg 1 Q div_by_zero_q $end
$var reg 5 R div_counter_d [4:0] $end
$var reg 5 S div_counter_q [4:0] $end
$var reg 1 T div_hold $end
$var reg 1 U div_valid $end
$var reg 1 V is_greater_equal $end
$var reg 34 W mac_res_d [33:0] $end
$var reg 3 X md_state_d [2:0] $end
$var reg 3 Y md_state_q [2:0] $end
$var reg 1 Z mult_hold $end
$var reg 1 [ mult_valid $end
$var reg 32 \ op_denominator_d [31:0] $end
$var reg 32 ] op_numerator_d [31:0] $end
$var reg 32 ^ op_numerator_q [31:0] $end
$var reg 32 _ op_quotient_d [31:0] $end
$var reg 32 ` op_quotient_q [31:0] $end
$var reg 34 a op_remainder_d [33:0] $end
$var reg 1 b sign_a $end
$var reg 1 c sign_b $end
$scope begin gen_mult_fast $end
$var reg 16 d mult_op_a [15:0] $end
$var reg 16 e mult_op_b [15:0] $end
$var reg 2 f mult_state_d [1:0] $end
$var reg 2 g mult_state_q [1:0] $end
$upscope $end
$upscope $end
$upscope $end
$enddefinitions $end
$comment Show the parameter values. $end
$dumpall
b10 K
$end
#0
$dumpvars
b0 g
b1 f
b0 e
b0 d
0c
0b
b0 a
b0 `
b0 _
b0 ^
b0 ]
b0 \
0[
0Z
b0 Y
b1 X
b0 W
1V
0U
0T
b0 S
b11111 R
0Q
0P
b111111111111111111111111111111111 O
b1 N
b0 M
0L
b0 J
b0 I
b0 H
b0 G
b0 F
b0 E
b1 D
b0 C
b1 B
b0 A
b0 @
0?
1>
b0 =
b0 <
0;
0:
19
08
b0 7
06
05
b0 4
b0 3
b0 2
01
00
0/
0.
0-
b0 ,
0+
0*
0)
0(
0'
0&
0%
0$
0#
b0 "
b0 !
$end
#5
1#
#10
0#
#15
1#
#20
0#
16
#25
b10101011011010000000000000001010101101101101101 J
b11100101100011011000111111 W
b1010101101101101101 \
b10100111100011001000100010110101 E
b10000000000000000010101011011011 C
b10 =
b11100101100011011000111111 H
b11 I
10
b1010101101101101101 A
b10000000000000000010101011011011 @
b111111111111111111010101001001001 O
b110 X
b1010101101101 a
b1 f
b11100101100011011000111111 F
b11100101100011011000111111 G
b0 M
b10101011011011 e
b1010101101101 d
1'
1.
11
b101001111000110010001000101101010000000000000001010101101101101101 ,
1+
b1010101101101101 "
b1100000000000000000101010110110110 !
b10101011011011 3
b1010101101101 2
1?
b10 7
b11 4
1(
1&
1-
1#
#30
0#
#35
00
b0 I
0'
1:
1U
1T
b11110 R
09
0>
b1 g
b110 Y
b10000000000000000000000000000000 B
b11111 S
b10001100100011101100000100110001100001010110110110110110101010100011 J
b100100101101100110100010111 W
b0 D
b1010110110110110110101010100011 \
b110010001110110000010011000110 E
b110010001110110000010011000110 C
b100100101101100110100010111 H
0V
b1010110110110110110101010100011 A
b10 <
b10001010101101101101101101010101 @
b111101010100100100100100101010101 O
b0 X
b1000110010001110110000010011000110 a
b10 f
b100100101101100110100010111 F
b100100101101100110100010111 G
b11001000111011 M
b101010110110 e
b110110110101010 d
0.
01
b10001100100011101100000100110001101001010110110110110110101010100011 ,
1$
0+
b101010110110110110110101010100 "
b1100010101011011011011011010101010 !
b1010101101101101101101010101 3
b101010110110110110110101010 2
b1 7
b10 4
0-
1#
#40
0#
#45
b100010010011111101010100111000011011010101010001101001111001011 J
b1111010001010100110001101111100010 W
1;
b1 I
b11011010101010001101001111001011 \
b10001001001111110101010011100 E
b10001001001111110101010011100 C
b0 =
15
1)
1*
b1111010001010100110001101111100010 H
10
b11011010101010001101001111001011 A
b10110110110101010100011010011110 @
1T
1U
b10010010010101010111001011000011 O
b0 X
b10001001001111110101010011100 a
1c
b10 f
b11111010001010100110001101111100010 F
b11111010001010100110001101111100010 G
b1000100100111 M
b1011011011010101 e
b1010001101001111 d
1.
b100010010011111101010100111001011011010101010001101001111001011 ,
b11011011010101010001101001111001 "
b101101101101010101000110100111100 !
b10110110110101010100011010011110 3
b11011011011010101010001101001111 2
b11 7
b11 4
0&
1-
1#
#50
0#
#55
1[
b10 g
1'
b11 I
b110100111100101100100001001100 \
b1101010101100010110110001111101 C
05
0)
0*
0;
b1100011000101111001001100010111 H
b100100110001011101101100011111010000110100111100101100100001001100 J
10
b110100111100101100100001001100 A
b1 <
b11010001101001111001011001000010 @
0T
1U
b101011100101100001101001101111011 O
b0 X
b1101010101100010110110001111101 a
b10010011000101110110110001111101 W
b0 f
b1100011000101111001001100010111 F
b1100011000101111001001100010111 G
b110101010110001 M
0c
b1001011001000010 e
b1010100011010011 d
b10010011000101110110110001111101 E
0.
11
b11010101011000101101100011111010100110100111100101100100001001100 ,
0$
1+
b1000110100111100101100100001001 "
b110100011010011110010110010000100 !
b1010001101001111001011001000010 3
b10101000110100111100101100100001 2
0?
b0 7
b0 4
0(
1&
0-
1#
#60
0#
#65
b11111 R
b0 Y
b1000000000000000000000000000000 B
b11110 S
1%
b1101110010100100010111010010010010110010000100110010010010011101 J
b110111001010010001011101001001 E
1;
b1000000000000000000000000000000 D
b10110010000100110010010010011101 \
b1100101100100001001100100100100 C
b1 =
15
1)
b1111111000000110000011011100101001 H
00
b0 I
1V
b10110010000100110010010010011101 A
b0 <
b1100101100100001001100100100100 @
0T
0U
b110100110111101100110110110111 O
b110 X
b11110010110010000100110010010010 a
1Z
1b
1[
b0 f
b110111001010010001011101001001 W
b11111111000000110000011011100101001 F
b11111111000000110000011011100101001 G
b1000101100001001 M
b1001100100100100 e
b1111001011001000 d
0'
01
b100010110000100100010111010010010010110010000100110010010010011101 ,
b10010110010000100110010010010011 "
b11001011001000010011001001001001 !
b11100101100100001001100100100100 3
b11110010110010000100110010010010 2
1?
b1 7
18
1/
0&
1#
#70
0#
#75
0%
b110100001111110111100101000000011001001001001110100100101011011 J
b11010000111111011110010100000 E
b0 D
b11001001001001110100100101011011 \
b10101110001000000110000111000 C
05
0)
0:
0;
b11010000111111011110010100000 H
10
b11 I
0V
b11001001001001110100100101011011 A
b10 <
b100110010010010011101001001010 @
b110110011011011011000101101101011 O
b1 X
b10011001001001001110100100101 a
b11111 R
0Z
0[
b11 f
b11010000111111011110010100000 W
b11010000111111011110010100000 F
b11010000111111011110010100000 G
b10101110001000000110000111000 M
0b
b11101001001010 e
b1001100100100 d
1'
b101011100010000001100001110001011001001001001110100100101011011 ,
1$
0+
b10011001001001001110100100101011 "
b1001100100100100111010010010101 !
b100110010010010011101001001010 3
b10011001001001001110100100101 2
b10 7
b1 4
08
0/
1&
1#
#80
0#
#85
b100111010010010101101100011101 ]
b1 Y
b10000000000000000000000000000000 B
b11111 S
b10101111000011110110001110001000 W
b11010010010101101100011101101101 \
b10010011000110000110111110110101 C
b10 =
b10101111000011110110001110001000 H
b100100110001100001101111101101010011010010010101101100011101101101 J
00
b0 I
b11010010010101101100011101101101 A
b0 <
b11001110100100101011011000111011 @
b110110001011011010100100111000101 O
b10 X
b10010011000110000110111110110101 a
b11111 R
b11 f
b10101111000011110110001110001000 F
b10101111000011110110001110001000 G
b10010011000110000110111110110101 M
b1011011000111011 e
b10011101001001 d
b10010011000110000110111110110101 E
0'
b100100110001100001101111101101010011010010010101101100011101101101 ,
0$
1+
b111010010010101101100011101101 "
b1110011101001001010110110001110110 !
b1001110100100101011011000111011 3
b100111010010010101101100011101 2
b11 4
1(
18
1/
0&
1#
#90
0#
#95
b10000000000000000000000000000000 D
b10110001110110110101100001110101 \
b101101100011101101101011000011 C
b11 =
1:
b1001010001010000001101110010000 H
b110111001000000001000011100110010110001110110110101100001110101 J
b11 I
10
1V
b10110001110110110101100001110101 A
b101101100011101101101011000011 @
b101010010011100010010010100111101 O
b1010110110001110110110101100001 ]
b10 X
b1010001011111110110000100001110011 a
b11111 R
1Z
1[
b11011100100000000100001110011 W
b0 f
b1001010001010000001101110010000 F
b1001010001010000001101110010000 G
b1000101111111011 M
b1101101011000011 e
b101011011000111 d
b11011100100000000100001110011 E
1'
0.
b10100010111111101100001000011100110010110001110110110101100001110101 ,
b10110110001110110110101100001110 "
b1001011011000111011011010110000111 !
b10101101100011101101101011000011 3
b1010110110001110110110101100001 2
0?
b0 7
b0 4
0(
08
0/
1&
1-
1#
#100
0#
#105
b10 Y
b1010110110001110110110101100001 ^
b100010000110001010001111011000010010110110101100001110101000100001 J
b10001000011000101000111101100001 E
b10110110101100001110101000100001 \
b110110101100001110101000100001 C
b11001000100110111000100001100010 H
00
b0 I
b11010110000111010100010000111110 A
b11 <
b110110101100001110101000100001 @
b10010010100111100010101110111101 O
b1010110110001110110110101100001 ]
b11 X
b0 a
b11111 R
1Z
1[
b0 f
b10001000011000101000111101100001 W
b11001000100110111000100001100010 F
b11001000100110111000100001100010 G
b1101001000001010 M
b1110101000100001 e
b1101101101011000 d
0'
b110100100000101010001111011000011111010110000111010100010000111110 ,
1$
b11011010110000111010100010000111 "
b1001101101011000011101010001000011 !
b10110110101100001110101000100001 3
b11011011010110000111010100010000 2
18
1/
0&
0-
1#
#110
0#
#115
b10000000100000011100010000110011100000111010100010000111110001101000 J
b10000001110001000011001110 E
b10111010100010000111110001101000 C
b0 =
0:
b1000000010000001110001000011001110 H
10
b11 I
b1010001000011111000110100000010 A
b10111010100010000111110001101000 @
b110001010111011110000011100101111 O
b111010100010000111110001101000 \
b11 X
b0 a
b11111 R
0Z
0[
b11 f
b1000000010000001110001000011001110 W
b1000000010000001110001000011001110 F
b1000000010000001110001000011001110 G
b111110011110011100011110100101110 M
b111110001101000 e
b1110101000100 d
1'
11
b1111100111100111000111101001011101101010001000011111000110100000010 ,
0+
b11101010001000011111000110100000 "
b101110101000100001111100011010000 !
b111010100010000111110001101000 3
b11101010001000011111000110100 2
1?
b10 7
b1 4
1&
1#
#120
0#
#125
b100111110101110111110110111101111 N
b11 Y
b1010011111101011001101111101101110 W
b0 D
b10011111010111011111011011110111 C
b10 =
1;
b1010011111101011001101111101101110 H
b1001111101011101111101101111011110011100011010000001010001001100101 J
00
b0 I
0V
b11100011010000001010001001100101 A
b0 <
b10011111000110100000010100010011 @
b111001011111101011101100110101 O
b11100011010000001010001001100101 \
b11 X
b100111110101110111110110111101111 a
b11110 R
b11 f
b11010011111101011001101111101101110 F
b11010011111101011001101111101101110 G
b1010011111010111011111011011110111 M
b10100010011 e
b111110001101 d
b10011111010111011111011011110111 E
0'
01
b10100111110101110111110110111101110011100011010000001010001001100101 ,
0$
1+
b1111100011010000001010001001100 "
b1100111110001101000000101000100110 !
b11111000110100000010100010011 3
b1111100011010000001010001001 2
0?
b0 7
b10 4
1(
08
0/
0&
1#
#130
0#
#135
1%
b10000000000000000000000000000000 _
b1011100000110001110110011101010001 W
b10000000000000000000000000000000 D
b101000100110010100110111110101 \
b1010001001100101001101111 C
b11 =
1*
b1011100000110001110110011101010001 H
b10111000001100011101100111010100010000101000100110010100110111110101 J
10
b11 I
1V
b101000100110010100110111110101 A
b1010001001100101001101111 @
b110101110110011010110010000010101 O
b101011011010101110001101000100111 N
b10100010011001010011011111 a
b11 f
b11011100000110001110110011101010001 F
b11011100000110001110110011101010001 G
b1010101101101010111000110100010011 M
b1100101001101111 e
b100000010100010 d
b11100000110001110110011101010001 E
1'
11
b10101011011010101110001101000100110000101000100110010100110111110101 ,
b101000100110010100110111110 "
b1000000010100010011001010011011111 !
b10000001010001001100101001101111 3
b1000000101000100110010100110111 2
1?
b11 7
b1 4
0(
18
1/
1&
1#
#140
0#
#145
b11000000000000000000000000000000 D
b11101 R
b10000000000000000000000000000000 `
b1000000000000000000000000000000 B
b11110 S
0%
b1001010000110010000011011110110001010011011111010111010001010100 J
b100101000011001000001101111011 E
b1010011011111010111010001010100 \
b110010100110111110101110100010 C
b1 =
0*
1:
0;
b10001101000110110010010100001100 H
b1 I
b1010011011111010111010001010100 A
b1 <
b110010100110111110101110100010 @
b101011001000001010001011101010111 O
b11100110101001010000011011110111 N
b11000000000000000000000000000000 _
b1100101001101111101011101000100 a
1[
b100101000011001000001101111011 W
b0 f
b10001101000110110010010100001100 F
b10001101000110110010010100001100 G
b111001101010010 M
b1110101110100010 e
b1001100101001101 d
0'
1.
b10011100110101001010000011011110110101010011011111010111010001010100 ,
b11001010011011111010111010001010 "
b1100101001101111101011101000101 !
b110010100110111110101110100010 3
b10011001010011011111010111010001 2
0?
b0 7
b0 4
0&
1-
1#
#150
0#
#155
19
1>
b0 g
b1011101000101010011101000111001 \
b1111010111010001010100111010001 C
b11 =
0:
b111000010100100111100101101000 H
b111101011101000101010011101000100001011101000101010011101000111001 J
b11 I
b1011101000101010011101000111001 A
b0 <
b1111010111010001010100111010001 @
b101000101110101011000101110001101 O
b101100001100100010010000111000001 N
b11000000000000000000000000000000 _
b11110101110100010101001110100010 a
0[
b1 f
b111000010100100111100101101000 W
b111000010100100111100101101000 F
b111000010100100111100101101000 G
b0 M
b1010100111010001 e
b101010011101000 d
b10110000110010001001000011100000 E
1'
b11101100001100100010010000111000000001011101000101010011101000111001 ,
0+
b11101011101000101010011101000111 "
b1011110101110100010101001110100011 !
b11111010111010001010100111010001 3
b1111101011101000101010011101000 2
b10 4
1(
08
0/
1&
1#
#160
0#
#165
b11100000000000000000000000000000 D
b11100 R
b11000000000000000000000000000000 `
b100000000000000000000000000000 B
b11101 S
09
0>
b1 g
b10101001110100011100110111010010001001110100011100110111010010010 J
b1001100100111010000001110110 W
b1001110100011100110111010010010 \
b11110100001011100100010111001010 E
b101010011101000111001101110100 C
b1 =
b1001100100111010000001110110 H
b1001110100011100110111010010010 A
b11 <
b101010011101000111001101110100 @
b101100010111000110010001011011011 O
b111101000010111001000101110010101 N
b11100000000000000000000000000000 _
b1010100111010001110011011101001 a
b10 f
b1001100100111010000001110110 F
b1001100100111010000001110110 G
b1111010000101110 M
b10101001110100 e
b11100110111010 d
0.
b1111101000010111001000101110010101101001110100011100110111010010010 ,
1$
b10101001110100011100110111010010 "
b1010100111010001110011011101001 !
b101010011101000111001101110100 3
b10101001110100011100110111010 2
1?
b1 7
18
1/
0-
1#
#170
0#
#175
b11110000000000000000000000000000 D
b11011 R
b11100000000000000000000000000000 `
b10000000000000000000000000000 B
b11100 S
b1110011011101001001010011111000010011011101001001010011111010001 J
1%
b10000100010000111100010100111 W
b10011011101001001010011111010001 \
b10000001011001001111011110011010 E
b11100110111010010010100111110 C
15
1)
b10000100010000111100010100111 H
00
b0 I
b10011011101001001010011111010001 A
b0 <
b11100110111010010010100111110 @
b11001000101101101011000001011101 O
b100000010110010011110111100110101 N
b11110000000000000000000000000000 _
b111001101110100100101001111100 a
b10 f
b10000100010000111100010100111 F
b10000100010000111100010100111 G
b1000000101100100 M
b1110011011101 e
b1001001010011111 d
0'
b1100000010110010011110111100110100010011011101001001010011111010001 ,
0$
b1110011011101001001010011111010 "
b111001101110100100101001111101 !
b11100110111010010010100111110 3
b10001110011011101001001010011111 2
b11 7
b11 4
0&
1#
#180
0#
#185
b100100101001111101000110111010100000101001111101000110111010111110 J
b111100000011111011000001010110 W
b101001111101000110111010111110 \
b11101101111100001100010111000001 E
b1001001010011111010001101110101 C
b11 =
b111100000011111011000001010110 H
10
b11 I
b101001111101000110111010111110 A
b11 <
b1001001010011111010001101110101 @
b110101100000101110010001010000011 O
b111011011111000011000101110000011 N
b11110000000000000000000000000000 _
b10010010100111110100011011101010 a
b10 f
b111100000011111011000001010110 F
b111100000011111011000001010110 G
b1110110111110000 M
b100100101001111 e
b1101000110111010 d
1'
01
b111011011111000011000101110000011100101001111101000110111010111110 ,
1$
1+
b100101001111101000110111010111 "
b1010010010100111110100011011101011 !
b1001001010011111010001101110101 3
b10100100101001111101000110111010 2
b1 7
b10 4
1&
1#
#190
0#
#195
b11111000000000000000000000000000 D
b11010 R
b11110000000000000000000000000000 `
b1000000000000000000000000000 B
b11011 S
b110100011011101011111001001101110000011011101011111001001101110100 J
b1111101110110011010111000111011111 W
b11011101011111001001101110100 \
b1100001011001100011101010110011 E
b1101000110111010111110010011011 C
05
0)
1*
1;
b1111101110110011010111000111011111 H
b1 I
b11011101011111001001101110100 A
b1 <
b1101000110111010111110010011011 @
b111001000101000001101100100010111 O
b11000010110011000111010101100111 N
b11111000000000000000000000000000 _
b11010001101110101111100100110111 a
1c
b10 f
b11111101110110011010111000111011111 F
b11111101110110011010111000111011111 G
b110000101100110 M
b1110100011011101 e
b1011111001001101 d
0'
1.
11
b10011000010110011000111010101100110100011011101011111001001101110100 ,
0$
b10100011011101011111001001101110 "
b1011010001101110101111100100110111 !
b11101000110111010111110010011011 3
b11110100011011101011111001001101 2
b10 7
b11 4
08
0/
0&
1-
1#
#200
0#
#205
1b
b10 g
b101111100100110111010011101010010011100100110111010011101010010110 J
b1010010101010001001100000110000111 W
1;
b11100100110111010011101010010110 \
b11011110101110101001000011001011 E
b1011111001001101110100111010100 C
b1 =
15
1)
0*
b1010010101010001001100000110000111 H
b11 I
b11100100110111010011101010010110 A
b11 <
b1011111001001101110100111010100 @
b110110010001011000101011010011 O
b110111101011101010010000110010111 N
b11111000000000000000000000000000 _
b10111110010011011101001110101001 a
b11 f
b11010010101010001001100000110000111 F
b11010010101010001001100000110000111 G
b1011011110101110101001000011001011 M
0c
b1110100111010100 e
b1010111110010011 d
1'
01
b10110111101011101010010000110010111111100100110111010011101010010110 ,
1$
b1111100100110111010011101010010 "
b10111110010011011101001110101001 !
b1011111001001101110100111010100 3
b10101111100100110111010011101010 2
b1 7
b10 4
1&
1#
#210
0#
#215
b11111100000000000000000000000000 D
1:
1Z
1[
b11001 R
b11 g
b11111000000000000000000000000000 `
b100000000000000000000000000 B
b11010 S
b11101001110101001011000011011010001001110101001011000011011010001 J
b1111100110101011011111001110100110 W
b1001110101001011000011011010001 \
b10110100001001001011111111011010 E
b111010011101010010110000110110 C
1;
b1111100110101011011111001110100110 H
b0 I
00
b1001110101001011000011011010001 A
b0 <
b111010011101010010110000110110 @
b101100010101101001111001001011101 O
b101101000010010010111111110110101 N
b11111100000000000000000000000000 _
b1110100111010100101100001101101 a
b0 f
b11111100110101011011111001110100110 F
b11111100110101011011111001110100110 G
b11011010000100100 M
1b
b1011101001110101 e
b1101110100111010 d
0'
0.
b1101101000010010010111111110110100001001110101001011000011011010001 ,
0$
0+
b11101001110101001011000011011010 "
b1110100111010100101100001101101 !
b10111010011101010010110000110110 3
b11011101001110101001011000011011 2
18
1/
0&
0-
1#
#220
0#
#225
b1111100101011110010110100110101110 W
b1100001101101000100010110001001 \
b11001011000011011010001000101100 C
b0 =
b1111100101011110010110100110101110 H
b11111001010111100101101001101011100001100001101101000100010110001001 J
b1100001101101000100010110001001 A
b11001011000011011010001000101100 @
b100111100100101110111010011101101 O
b101111111110000011001111000011001 N
b11111100000000000000000000000000 _
b110010110000110110100010001011001 a
1Z
1[
b0 f
b11111100101011110010110100110101110 F
b11111100101011110010110100110101110 G
b1111111111111111111011111111100000 M
1b
b100101100001101 e
b1010010110000110 d
b11100101011110010110100110101110 E
b11101111111110000011001111000011000001100001101101000100010110001001 ,
b101100001101101000100010110001 "
b110010110000110110100010001011000 !
b1001011000011011010001000101100 3
b10100101100001101101000100010110 2
b11 7
b1 4
0(
1#
#230
0#
#235
b1 I
b1001001100111100000110101001100 E
b10010011001111000001101010011000000010001011000100101000000111011 J
0%
10
1.
b1001001100111100000110101001100 W
b10001011000100101000000111011 \
b1101000100010110001001010000001 C
b11 =
05
0)
0;
b1001001100111100000110101001100 H
b10001011000100101000000111011 A
b10 <
b1101000100010110001001010000001 @
b111011101001110110101111110001001 O
b1000111101010101001010011000001 N
b11111100000000000000000000000000 _
b11010001000101100010010100000011 a
0Z
1[
b0 f
b1001001100111100000110101001100 F
b1001001100111100000110101001100 G
b10001111010101 M
0b
b110100010001011 e
b1011010001000101 d
11
b1000111101010101001010011000001000010001011000100101000000111011 ,
1$
b10100010001011000100101000000111 "
b1011010001000101100010010100000011 !
b1101000100010110001001010000001 3
b10110100010001011000100101000000 2
0?
b0 7
b0 4
08
0/
1-
1#
#240
0#
#245
0:
19
1>
b0 g
b11011110001100100100000000000 E
b110111100011001001000000000000010010100000011101110100000001101 J
b11011110001100100100000000000 W
b11111000000000000000000000000000 D
b10010100000011101110100000001101 \
b10000010100011100110010001101101 C
b0 =
b11011110001100100100000000000 H
b11 I
0V
b10010100000011101110100000001101 A
b0 <
b11000100101000000111011101000000 @
b11010111111000100010111111100101 O
b100000101000111001100100011011011 N
b11111000000000000000000000000000 _
b100000101000111001100100011011011 a
0Z
0[
b1 f
b11011110001100100100000000000 F
b11011110001100100100000000000 G
b0 M
b111011101000000 e
b11101110100000 d
1'
0.
01
b100000101000111001100100011011010010010100000011101110100000001101 ,
0$
1+
b10010100000011101110100000001 "
b110001001010000001110111010000000 !
b11000100101000000111011101000000 3
b1100010010100000011101110100000 2
1&
0-
1#
#250
0#
#255
b11000 R
b10000000000000000000000000 B
b11001 S
b1011000101101110010001000 E
b10110001011011100100010000010111010000000110101010010001111 J
b1011000101101110010001000 W
b10111010000000110101010010001111 \
b1001000011010000101101001101 C
b1011000101101110010001000 H
b1 I
b10111010000000110101010010001111 A
b10 <
b10011101110100000001101010100100 @
b10001011111110010101011011100001 O
b10010000110100001011010011011 N
b10010000110100001011010011010 a
b1 f
b1011000101101110010001000 F
b1011000101101110010001000 G
b0 M
b1101010100100 e
b110101010010 d
0'
1.
11
b1000010010000110100001011010011011010111010000000110101010010001111 ,
1$
b1110111010000000110101010010001 "
b100111011101000000011010101001000 !
b11101110100000001101010100100 3
b1110111010000000110101010010 2
1?
b1 7
18
1/
0&
1-
1#
#260
0#
#265
09
0>
b1 g
b11101111010101110010111100 W
b0 I
b11010101001000111110011111000110 \
b11010010110001010010011110011111 C
b11101111010101110010111100 H
b1101001011000101001001111001111100011010101001000111110011111000110 J
00
b11010101001000111110011111000110 A
b11 <
b10000110101010010001111100111110 @
b1010101101110000011000001110011 O
b110100101100010100100111100111111 N
b110100101100010100100111100111110 a
b10 f
b11101111010101110010111100 F
b11101111010101110010111100 G
b1101001011000101 M
b11010101001 e
b1000111110011111 d
b11010010110001010010011110011111 E
0.
b10110100101100010100100111100111111111010101001000111110011111000110 ,
b11010101001000111110011111000 "
b100001101010100100011111001111100 !
b110101010010001111100111110 3
b11010101001000111110011111 2
b11 7
b11 4
1(
0-
1#
#270
0#
#275
b11111001111100011010100011100100 \
b1011001111100011011010001010111 C
b10 =
b110111101110000010110010111110 H
b1011001011111010110100010101110011111001111100011010100011100100 J
10
b11 I
b11111001111100011010100011100100 A
b1 <
b11000111110011111000110101000111 @
b1100000111001010111000110111 O
b10110011111000110110100010101111 N
b10110011111000110110100010101110 a
b101100101111101011010001010111 W
b10 f
b110111101110000010110010111110 F
b110111101110000010110010111110 G
b101100111110001 M
b100011111001111 e
b1100011010100011 d
b101100101111101011010001010111 E
1'
01
b10010110011111000110110100010101110111111001111100011010100011100100 ,
0$
b11111001111100011010100011100 "
b1110001111100111110001101010001110 !
b1000111110011111000110101000111 3
b100011111001111100011010100011 2
b1 7
b0 4
0(
08
0/
1&
1#
#280
0#
#285
b10111 R
b1000000000000000000000000 B
b11000 S
1%
b11111001000000000000000000000000 _
b11111001100111000011011000011001110001101010001110010000100100011101 J
b11100110011100001101100001100111 E
1;
b11111001000000000000000000000000 D
b1101010001110010000100100011101 \
b1100011010100011100100001001000 C
b1 =
1*
b1111100110011100001101100001100111 H
1V
b1101010001110010000100100011101 A
b0 <
b1100011010100011100100001001000 @
b100101011100011011110110111000101 O
b101111010000001110011100001010011 N
b11000110101000111001000010010001 a
1c
b10 f
b1111100110011100001101100001100111 W
b11111100110011100001101100001100111 F
b11111100110011100001101100001100111 G
b1011110100000011 M
b1110001101010001 e
b1110010000100100 d
b101111010000001110011100001010010001101010001110010000100100011101 ,
b10001101010001110010000100100011 "
b11000110101000111001000010010001 !
b11100011010100011100100001001000 3
b11110001101010001110010000100100 2
b10 7
b1 4
1#
#290
0#
#295
b11111001100000000000000000000000 D
b10110 R
b11111001000000000000000000000000 `
b100000000000000000000000 B
b10111 S
b1101000110011100001000110110 E
b11010001100111000010001101100001000010010001110101100101101001 J
0%
b1101000110011100001000110110 W
0;
b1000010010001110101100101101001 \
b11110010000100100011101011001011 C
b10 =
0*
b1101000110011100001000110110 H
b1000010010001110101100101101001 A
b11110010000100100011101011001011 @
b101111011011100010100110100101101 O
b101101110001110000001000001101001 N
b11111001100000000000000000000000 _
b111100100001001000111010110010111 a
b10 f
b1101000110011100001000110110 F
b1101000110011100001000110110 G
b1011011100011100 M
0c
b111001000010010 e
b1110101100101 d
1.
11
b11101101110001110000001000001101000001000010010001110101100101101001 ,
0+
b11001000010010001110101100101101 "
b1111100100001001000111010110010110 !
b1110010000100100011101011001011 3
b111001000010010001110101100101 2
1-
1#
#300
0#
#305
b10101 R
b11111001100000000000000000000000 `
b10000000000000000000000 B
b10110 S
b10 g
b110001101000100101001011000010001 W
b11111001100000000000000000000000 D
b11010110010110100111001001100000 \
b1010010000110110100001011110110 C
b110001101000100101001011000010001 H
b101001000011011010000101111011000011010110010110100111001001100000 J
b1 I
0V
b11010110010110100111001001100000 A
b1 <
b10001110101100101101001110010011 @
b1010011010010110001101100111111 O
b10100100001101101000010111101101 N
b11111001100000000000000000000000 _
b10100100001101101000010111101100 a
b11 f
b110001101000100101001011000010001 F
b110001101000100101001011000010001 G
b101010010000110110100001011110110 M
b1101001110010011 e
b100011101011001 d
b1010010000110110100001011110110 E
0'
b1010100100001101101000010111101100111010110010110100111001001100000 ,
b111010110010110100111001001100 "
b1100011101011001011010011100100110 !
b10001110101100101101001110010011 3
b1000111010110010110100111001001 2
0?
b0 7
b10 4
1(
0&
1#
#310
0#
#315
1;
1:
1[
1c
b11 g
b10101011110100011001010000010011100100110000011111111101011 J
1%
b1111100101011101101011011000110011 W
b10011100100110000011111111101011 \
b101010111101000110010100 E
b101010111101000110010100 C
1*
b1111100101011101101011011000110011 H
b11 I
b10011100100110000011111111101011 A
b10 <
b10110100111001001100000111111111 @
b11000110110011111000000000101001 O
b1010101111010001100101001 N
b1010101111010001100101000 a
b0 f
b11111100101011101101011011000110011 F
b11111100101011101101011011000110011 G
b10101011 M
b1011010011100100 e
b101101001110010 d
1'
b1010101111010001100101001010011100100110000011111111101011 ,
1$
b11010011100100110000011111111101 "
b1101101001110010011000001111111110 !
b10110100111001001100000111111111 3
b1011010011100100110000011111111 2
1?
b11 7
b11 4
18
1/
1&
1#
#320
0#
#325
0:
b10100 R
b1000000000000000000000 B
b10101 S
19
1>
b0 g
b11000001111111110101111111101100000001111111110101111111101111010 J
0%
b11111001101000000000000000000000 _
1.
b11000111000110001101110000001111 W
0;
b11111001101000000000000000000000 D
b1111111110101111111101111010 \
b11100100011100110110000110110000 E
b110000011111111101011111111011 C
b11 =
0*
b11000111000110001101110000001111 H
1V
b1111111110101111111101111010 A
b11 <
b110000011111111101011111111011 @
b111100000000010100000000100001011 O
b111001000111001101100001101100001 N
b1100000111111111010111111110110 a
0Z
0[
b1 f
b11000111000110001101110000001111 F
b11000111000110001101110000001111 G
b0 M
0c
b1101011111111011 e
b1110101111111101 d
01
b11111001000111001101100001101100001100001111111110101111111101111010 ,
b11000001111111110101111111101111 "
b1001100000111111111010111111110111 !
b110000011111111101011111111011 3
b10011000001111111110101111111101 2
b10 7
1#
#330
0#
