athanor/ppa_frontier/ibex_decoder_predicate/toggle/toggle_power/gold_toggle.vcd
$date
	Sun Jun 28 22:51:07 2026
$end
$version
	Icarus Verilog
$end
$timescale
	1s
$end
$scope module tb_gold $end
$scope module uut $end
$var wire 1 ! branch_taken_i $end
$var wire 1 " clk_i $end
$var wire 1 # illegal_c_insn_i $end
$var wire 1 $ illegal_insn_o $end
$var wire 1 % illegal_reg_rv32e $end
$var wire 32 & instr [31:0] $end
$var wire 32 ' instr_alu [31:0] $end
$var wire 1 ( instr_first_cycle_i $end
$var wire 32 ) instr_rdata_alu_i [31:0] $end
$var wire 32 * instr_rdata_i [31:0] $end
$var wire 5 + rf_raddr_b_o [4:0] $end
$var wire 5 , rf_waddr_o [4:0] $end
$var wire 1 - rf_we_o $end
$var wire 1 . rst_ni $end
$var wire 32 / zimm_rs1_type_o [31:0] $end
$var wire 10 0 unused_instr_alu [9:0] $end
$var wire 5 1 rf_raddr_a_o [4:0] $end
$var wire 1 2 mult_en_o $end
$var wire 5 3 instr_rs3 [4:0] $end
$var wire 5 4 instr_rs2 [4:0] $end
$var wire 5 5 instr_rs1 [4:0] $end
$var wire 5 6 instr_rd [4:0] $end
$var wire 32 7 imm_u_type_o [31:0] $end
$var wire 32 8 imm_s_type_o [31:0] $end
$var wire 32 9 imm_j_type_o [31:0] $end
$var wire 32 : imm_i_type_o [31:0] $end
$var wire 32 ; imm_b_type_o [31:0] $end
$var wire 1 < div_en_o $end
$var wire 12 = csr_addr_o [11:0] $end
$var reg 1 > _sv2v_0 $end
$var reg 1 ? alu_multicycle_o $end
$var reg 2 @ alu_op_a_mux_sel_o [1:0] $end
$var reg 1 A alu_op_b_mux_sel_o $end
$var reg 7 B alu_operator_o [6:0] $end
$var reg 1 C branch_in_dec_o $end
$var reg 2 D bt_a_mux_sel_o [1:0] $end
$var reg 3 E bt_b_mux_sel_o [2:0] $end
$var reg 1 F csr_access_o $end
$var reg 1 G csr_illegal $end
$var reg 2 H csr_op [1:0] $end
$var reg 2 I csr_op_o [1:0] $end
$var reg 1 J data_req_o $end
$var reg 1 K data_sign_extension_o $end
$var reg 2 L data_type_o [1:0] $end
$var reg 1 M data_we_o $end
$var reg 1 N div_sel_o $end
$var reg 1 O dret_insn_o $end
$var reg 1 P ebrk_insn_o $end
$var reg 1 Q ecall_insn_o $end
$var reg 1 R icache_inval_o $end
$var reg 1 S illegal_insn $end
$var reg 1 T imm_a_mux_sel_o $end
$var reg 3 U imm_b_mux_sel_o [2:0] $end
$var reg 1 V jump_in_dec_o $end
$var reg 1 W jump_set_o $end
$var reg 1 X mret_insn_o $end
$var reg 1 Y mult_sel_o $end
$var reg 2 Z multdiv_operator_o [1:0] $end
$var reg 2 [ multdiv_signed_mode_o [1:0] $end
$var reg 7 \ opcode [6:0] $end
$var reg 7 ] opcode_alu [6:0] $end
$var reg 1 ^ rf_ren_a_o $end
$var reg 1 _ rf_ren_b_o $end
$var reg 1 ` rf_wdata_sel_o $end
$var reg 1 a rf_we $end
$var reg 1 b use_rs3_d $end
$var reg 1 c use_rs3_q $end
$var reg 1 d wfi_insn_o $end
$scope begin gen_no_rs3_flop $end
$var wire 1 e sv2v_tmp_12378 [1:1] $end
$var wire 1 f unused_clk $end
$var wire 1 g unused_rst_n $end
$upscope $end
$scope begin gen_rv32e_reg_check_inactive $end
$upscope $end
$scope begin csr_operand_check $end
$upscope $end
$upscope $end
$upscope $end
$enddefinitions $end
#0
$dumpvars
0g
0f
0e
0d
0c
0b
0a
0`
0_
0^
b0 ]
b0 \
b0 [
b0 Z
0Y
0X
0W
0V
b0 U
1T
1S
0R
0Q
0P
0O
0N
0M
b0 L
0K
0J
b0 I
b0 H
0G
0F
b0 E
b10 D
0C
b101100 B
1A
b11 @
0?
0>
b0 =
0<
b0 ;
b0 :
b0 9
b0 8
b0 7
b0 6
b0 5
b0 4
b0 3
02
b0 1
b0 0
b0 /
0.
0-
b0 ,
b0 +
b0 *
b0 )
0(
b0 '
b0 &
0%
1$
0#
0"
0!
$end
#5
b1010 0
b101101 \
1S
b101 8
b100000000100 ;
b101 ,
b101 6
b1011011 ]
b10101011011 '
b10101011011 )
b1010101101 &
b1010101101 *
1!
1g
1.
1f
1"
#10
0f
0"
#15
b1 1
b1001101 0
b1101101 \
1S
b10110 8
b10110 ;
b1010000000000000 7
b1010000000000000 9
b1 /
b1 5
b10110 ,
b10110 6
b10101011011011011 '
b10101011011011011 )
b1010101101101101 &
b1010101101101101 *
1f
1"
#20
0f
0"
#25
b10101 1
b1011010 ]
b101101101 0
1S
b10 :
b1010101101000000000000 7
b10101101000000000010 9
b10 =
b10101 /
b10101 5
b10 +
b10 4
1#
b10101011011011011011010 '
b10101011011011011011010 )
b1010101101101101101101 &
b1010101101101101101101 *
1f
1"
#30
0f
0"
#35
b1101 1
b101010 ]
b1101101101 0
b1010101 \
1S
b10101011 :
b10110110 8
b10110110 ;
b1010101101101101000000000000 7
b1101101100010101010 9
b10101011 =
b1101 /
b1101 5
b1011 +
b1011 4
b1 3
0#
b10101011011011011011010101010 '
b10101011011011011011010101010 )
b1010101101101101101101010101 &
b1010101101101101101101010101 *
0g
0.
1f
1"
#40
0f
0"
#45
b1101110101 0
b11111111111111111111101011011011 :
b11111111111111111111101011001010 8
b11111111111111111111001011001010 ;
b10101101101101101101000000000000 7
b11111111111101101101101011011010 9
b101011011011 =
b11011 +
b11011 4
b10101 3
b1010 ,
b1010 6
b1101 ]
b1000110 \
1S
b1011011011011011010101010001101 '
b1011011011011011010101010001101 )
b10101101101101101101010101000110 &
b10101101101101101101010101000110 *
1(
1f
1"
#50
0f
0"
#55
b1010 1
b1001111 ]
b1010100110 0
b100111 \
1S
b11011011011 :
b11011000011 8
b111011000010 ;
b1101101101101010101000000000000 7
b1010101111011011010 9
b11011011011 =
b1010 /
b1010 5
b1101 3
b11 ,
b11 6
b11011011011010101010001101001111 '
b11011011011010101010001101001111 )
b1101101101101010101000110100111 &
b1101101101101010101000110100111 *
1f
1"
#60
0f
0"
#65
b1000 1
b1000100111 0
b11011010101 :
b11011010011 8
b111011010010 ;
b1101101010101000110000000000000 7
b1000110111011010100 9
b11011010101 =
b1000 /
b1000 5
b10101 +
b10101 4
b10011 ,
b10011 6
b1001011 ]
b1100101 \
1S
b11011010101010001101001111001011 '
b11011010101010001101001111001011 )
b1101101010101000110100111100101 &
b1101101010101000110100111100101 *
0(
1f
1"
#70
0f
0"
#75
b10100 1
b1001000 ]
b100100101 0
b1100100 \
1S
b10101010001 :
b10101010010 8
b10101010010 ;
b1010101000110100111000000000000 7
b10100111110101010000 9
b10101010001 =
b10100 /
b10100 5
b10001 +
b10001 4
b1010 3
b10010 ,
b10010 6
b10101010001101001111001011001000 '
b10101010001101001111001011001000 )
b1010101000110100111100101100100 &
b1010101000110100111100101100100 *
1f
1"
#80
0f
0"
#85
b11100 1
b1100100100 0
b1001 \
1S
b10001101001 :
b10001110010 8
b10001110010 ;
b1000110100111100101000000000000 7
b11100101110001101000 9
b10001101001 =
b11100 /
b11100 5
b1001 +
b1001 4
b1000 3
b0 @
b10011 ]
b10001101001111001011001000010011 '
b10001101001111001011001000010011 )
b1000110100111100101100100001001 &
b1000110100111100101100100001001 *
0!
1g
1.
1f
1"
#90
0f
0"
#95
b1100 1
b1100101001 0
b1100100 \
1S
b11111111111111111111101001111001 :
b11111111111111111111101001100100 8
b11111111111111111111001001100100 ;
b10100111100101100100000000000000 7
b11111111111101100100101001111000 9
b101001111001 =
b1100 /
b1100 5
b11001 +
b11001 4
b10100 3
b100 ,
b100 6
b1001001 ]
b11 @
b1001111001011001000010011001001 '
b1001111001011001000010011001001 )
b10100111100101100100001001100100 &
b10100111100101100100001001100100 *
1!
0g
0.
1f
1"
#100
0f
0"
#105
b1 1
b1000100 0
b100100 \
1S
b11111111111111111111111001011001 :
b11111111111111111111111001010010 8
b11111111111111111111011001010010 ;
b11100101100100001001000000000000 7
b11111111111100001001111001011000 9
b111001011001 =
b1 /
b1 5
b11100 3
b10010 ,
b10010 6
1#
b11001011001000010011001001001001 '
b11001011001000010011001001001001 )
b11100101100100001001100100100100 &
b11100101100100001001100100100100 *
1f
1"
#110
0f
0"
#115
b1100 1
b1100100100 0
b11001000010 :
b11001010010 8
b11001010010 ;
b1100100001001100100000000000000 7
b1100100011001000010 9
b11001000010 =
b1100 /
b1100 5
b10 +
b10 4
b1100 3
b111010 \
1S
b1110100 ]
b11001000010011001001001001110100 '
b11001000010011001001001001110100 )
b1100100001001100100100100111010 &
b1100100001001100100100100111010 *
1(
0!
1g
1.
1f
1"
#120
0f
0"
#125
b100 1
b100101 ]
b100111010 0
b10010 \
1S
b10011001 :
b10011101 8
b100010011100 ;
b1001100100100100000000000000 7
b100100100010011000 9
b10011001 =
b100 /
b100 5
b11001 +
b11001 4
b1 3
b11101 ,
b11101 6
0#
b10011001001001001110100100101 '
b10011001001001001110100100101 )
b1001100100100100111010010010 &
b1001100100100100111010010010 *
0g
0.
1f
1"
#130
0f
0"
#135
b111 1
b111010010 0
b11001001001 :
b11001001001 8
b111001001000 ;
b1100100100100111010000000000000 7
b111010111001001000 9
b11001001001 =
b111 /
b111 5
b1001 +
b1001 4
b1100 3
b1001 ,
b1001 6
b101101 \
1S
b1011011 ]
b11001001001001110100100101011011 '
b11001001001001110100100101011011 )
b1100100100100111010010010101101 &
b1100100100100111010010010101101 *
0(
1!
1g
1.
1f
1"
#140
0f
0"
#145
b10010 1
b10001101 0
b1001001110 :
b1001010110 8
b1001010110 ;
b100100111010010010000000000000 7
b10010010001001001110 9
b1001001110 =
b10010 /
b10010 5
b1110 +
b1110 4
b100 3
b10110 ,
b10110 6
1_
1^
0C
b1100011 \
1S
b1000111 ]
b1001001110100100101011011000111 '
b1001001110100100101011011000111 )
b100100111010010010101101100011 &
b100100111010010010101101100011 *
1(
0!
0g
0.
1f
1"
#150
0f
0"
#155
b10101 1
b101100011 0
b1110100100 :
b1110110001 8
b101110110000 ;
b111010010010101101000000000000 7
b10101101001110100100 9
b1110100100 =
b10101 /
b10101 5
b100 +
b100 4
b111 3
b10001 ,
b10001 6
b1101101 \
1S
0_
0^
b1011011 ]
b1110100100101011011000111011011 '
b1110100100101011011000111011011 )
b111010010010101101100011101101 &
b111010010010101101100011101101 *
0(
1!
1g
1.
1f
1"
#160
0f
0"
#165
b1100 1
b1100001101 0
b11111111111111111111100100101011 :
b11111111111111111111100100110110 8
b11111111111111111111000100110110 ;
b10010010101101100011000000000000 7
b11111111111101100011100100101010 9
b100100101011 =
b1100 /
b1100 5
b1011 +
b1011 4
b10010 3
b10110 ,
b10110 6
b1101011 \
1S
b1010110 ]
b100101011011000111011011010110 '
b100101011011000111011011010110 )
b10010010101101100011101101101011 &
b10010010101101100011101101101011 *
1(
0!
1f
1"
#170
0f
0"
#175
b11101 1
b111 ]
b1101101011 0
b1000011 \
1S
b11111111111111111111101011011000 :
b11111111111111111111101011010101 8
b11111111111111111111101011010100 ;
b10101101100011101101000000000000 7
b11111111111111101101001011011000 9
b101011011000 =
b11101 /
b11101 5
b11000 +
b11000 4
b10101 3
b10101 ,
b10101 6
b1011011000111011011010110000111 '
b1011011000111011011010110000111 )
b10101101100011101101101011000011 &
b10101101100011101101101011000011 *
0g
0.
1f
1"
#180
0f
0"
#185
b1101 1
b1010100 ]
b1101000011 0
b1101010 \
1S
b11000111011 :
b11000100001 8
b111000100000 ;
b1100011101101101011000000000000 7
b1101011111000111010 9
b11000111011 =
b1101 /
b1101 5
b11011 +
b11011 4
b1100 3
b1 ,
b1 6
b11000111011011010110000111010100 '
b11000111011011010110000111010100 )
b1100011101101101011000011101010 &
b1100011101101101011000011101010 *
1g
1.
1f
1"
#190
0f
0"
#195
b11000 1
b1000001010 0
b11111111111111111111111011011010 :
b11111111111111111111111011010101 8
b11111111111111111111111011010100 ;
b11101101101011000011000000000000 7
b11111111111111000011011011011010 9
b111011011010 =
b11000 /
b11000 5
b11010 +
b11010 4
b11101 3
b10101 ,
b10101 6
b10000 ]
b1000 \
1S
1#
b11011011010110000111010100010000 '
b11011011010110000111010100010000 )
b11101101101011000011101010001000 &
b11101101101011000011101010001000 *
0(
1f
1"
#200
0f
0"
#205
b11101 1
b1101001000 0
b11010110000 :
b11010100100 8
b11010100100 ;
b1101011000011101010000000000000 7
b11101010011010110000 9
b11010110000 =
b11101 /
b11101 5
b10000 +
b10000 4
b1101 3
b100 ,
b100 6
b11111 \
1S
b111110 ]
0#
b11010110000111010100010000111110 '
b11010110000111010100010000111110 )
b1101011000011101010001000011111 &
b1101011000011101010001000011111 *
1(
1!
1f
1"
#210
0f
0"
#215
b10001 1
b1101 ]
b1011111 0
b1000110 \
1S
b11111111111111111111110000111010 :
b11111111111111111111110000101111 8
b11111111111111111111110000101110 ;
b11000011101010001000000000000000 7
b11111111111110001000010000111010 9
b110000111010 =
b10001 /
b10001 5
b11010 +
b11010 4
b11000 3
b1111 ,
b1111 6
b10000111010100010000111110001101 '
b10000111010100010000111110001101 )
b11000011101010001000011111000110 &
b11000011101010001000011111000110 *
0g
0.
1f
1"
#220
0f
0"
#225
b11 1
b11100110 0
b11111111111111111111111010100010 :
b11111111111111111111111010100011 8
b11111111111111111111111010100010 ;
b11101010001000011111000000000000 7
b11111111111100011111011010100010 9
b111010100010 =
b11 /
b11 5
b10 +
b10 4
b11101 3
b11 ,
b11 6
b100000 \
1S
b1000000 ]
1#
b11010100010000111110001101000000 '
b11010100010000111110001101000000 )
b11101010001000011111000110100000 &
b11101010001000011111000110100000 *
0(
0!
1f
1"
#230
0f
0"
#235
b11000 1
b1000100000 0
b10100 \
1S
b11111111111111111111100010000111 :
b11111111111111111111100010010000 8
b11111111111111111111000010010000 ;
b10001000011111000110000000000000 7
b11111111111111000110100010000110 9
b100010000111 =
b11000 /
b11000 5
b111 +
b111 4
b10001 3
b10000 ,
b10000 6
b101000 ]
b10000111110001101000000101000 '
b10000111110001101000000101000 )
b10001000011111000110100000010100 &
b10001000011111000110100000010100 *
1!
1f
1"
#240
0f
0"
#245
b10100 1
1-
0$
b100010100 0
b111110001 :
b111101010 8
b111101010 ;
b11111000110100000000000000000 7
b10100000100111110000 9
b111110001 =
b10100 /
b10100 5
b10001 +
b10001 4
b11 3
b1010 ,
b1010 6
1a
1^
b10011 \
0S
b100110 ]
0#
b111110001101000000101000100110 '
b111110001101000000101000100110 )
b11111000110100000010100010011 &
b11111000110100000010100010011 *
1(
0!
1f
1"
#250
0f
0"
#255
1$
0-
b10 1
b10100 ]
b10110011 0
1S
b1001010 \
0^
0a
b11111111111111111111110001101000 :
b11111111111111111111110001101001 8
b11111111111111111111110001101000 ;
b11000110100000010100000000000000 7
b11111111111100010100010001101000 9
b110001101000 =
b10 /
b10 5
b1000 +
b1000 4
b11000 3
b1001 ,
b1001 6
1#
b10001101000000101000100110010100 '
b10001101000000101000100110010100 )
b11000110100000010100010011001010 &
b11000110100000010100010011001010 *
1g
1.
1f
1"
#260
0f
0"
#265
b0 B
b11 U
b110111 ]
b10001010 0
b11011 \
1S
b11111111111111111111101000000101 :
b11111111111111111111101000000101 8
b11111111111111111111101000000100 ;
b10100000010100010011000000000000 7
b11111111111100010011101000000100 9
b101000000101 =
b101 +
b101 4
b10100 3
b101 ,
b101 6
b1000000101000100110010100110111 '
b1000000101000100110010100110111 )
b10100000010100010011001010011011 &
b10100000010100010011001010011011 *
1f
1"
#270
0f
0"
#275
b11001 1
b1110101 ]
b0 U
b101100 B
b1001011011 0
b1111010 \
1S
b101000100 :
b101001101 8
b100101001100 ;
b10100010011001010000000000000 7
b11001010000101000100 9
b101000100 =
b11001 /
b11001 5
b100 +
b100 4
b10 3
b1101 ,
b1101 6
b101000100110010100110111110101 '
b101000100110010100110111110101 )
b10100010011001010011011111010 &
b10100010011001010011011111010 *
1f
1"
#280
0f
0"
#285
b10011 1
b1110100 ]
b11011010 0
b111010 \
1S
b100110010 :
b100111101 8
b100100111100 ;
b10011001010011011000000000000 7
b10011011000100110010 9
b100110010 =
b10011 /
b10011 5
b10010 +
b10010 4
b11101 ,
b11101 6
0#
b100110010100110111110101110100 '
b100110010100110111110101110100 )
b10011001010011011111010111010 &
b10011001010011011111010111010 *
1f
1"
#290
0f
0"
#295
b11111 1
b10101 ]
b1111011010 0
b1010 \
1S
b11111111111111111111110010100110 :
b11111111111111111111110010111101 8
b11111111111111111111110010111100 ;
b11001010011011111010000000000000 7
b11111111111111111010010010100110 9
b110010100110 =
b11111 /
b11111 5
b110 +
b110 4
b11001 3
b10010100110111110101110100010101 '
b10010100110111110101110100010101 )
b11001010011011111010111010001010 &
b11001010011011111010111010001010 *
1f
1"
#300
0f
0"
#305
b10111 1
b111001010 0
b100111 \
1S
b11111111111111111111100110111110 :
b11111111111111111111100110100101 8
b11111111111111111111100110100100 ;
b10011011111010111010000000000000 7
b11111111111110111010000110111110 9
b100110111110 =
b10111 /
b10111 5
b11110 +
b11110 4
b10011 3
b101 ,
b101 6
b1001110 ]
1#
b110111110101110100010101001110 '
b110111110101110100010101001110 )
b10011011111010111010001010100111 &
b10011011111010111010001010100111 *
1!
0g
0.
1f
1"
#310
0f
0"
#315
b10001 1
b1000111 0
b11111111111111111111111110101110 :
b11111111111111111111111110110011 8
b11111111111111111111111110110010 ;
b11111010111010001010000000000000 7
b11111111111110001010011110101110 9
b111110101110 =
b10001 /
b10001 5
b1110 +
b1110 4
b11111 3
b10011 ,
b10011 6
b1010001 \
1S
b0 B
0A
b0 @
b100011 ]
b11110101110100010101001110100011 '
b11110101110100010101001110100011 )
b11111010111010001010100111010001 &
b11111010111010001010100111010001 *
0(
0!
1f
1"
#320
0f
0"
#325
b10100 1
b11 I
b100110001 0
b11111111111111111111101110100010 :
b11111111111111111111101110101000 8
b11111111111111111111001110101000 ;
b10111010001010100111000000000000 7
b11111111111110100111001110100010 9
b101110100010 =
b10100 /
b10100 5
b10 +
b10 4
b10111 3
b1000 ,
b1000 6
b1100110 ]
1A
b11 @
b101100 B
b11 H
0a
1`
0F
b1110011 \
1S
b1110100010101001110100011100110 '
b1110100010101001110100011100110 )
b10111010001010100111010001110011 &
b10111010001010100111010001110011 *
1(
1f
1"
#330
0f
0"
#335
b11010 1
b0 I
b1010010011 0
b11111111111111111111100010101001 :
b11111111111111111111100010111001 8
b11111111111111111111100010111000 ;
b10001010100111010001000000000000 7
b11111111111111010001100010101000 9
b100010101001 =
b11010 /
b11010 5
b1001 +
b1001 4
b10001 3
b11001 ,
b11001 6
b1011101 \
1S
b0 H
0`
b111010 ]
0#
b10101001110100011100110111010 '
b10101001110100011100110111010 )
b10001010100111010001110011011101 &
b10001010100111010001110011011101 *
0(
1!
1g
1.
1f
1"
#340
0f
0"
#345
b1110 1
b1110011101 0
b1001001 \
1S
b11111111111111111111101001110100 :
b11111111111111111111101001101110 8
b11111111111111111111001001101110 ;
b10100111010001110011000000000000 7
b11111111111101110011001001110100 9
b101001110100 =
b1110 /
b1110 5
b10100 +
b10100 4
b10100 3
b1110 ,
b1110 6
b10010 ]
1#
b1001110100011100110111010010010 '
b1001110100011100110111010010010 )
b10100111010001110011011101001001 &
b10100111010001110011011101001001 *
0!
1f
1"
#350
0f
0"
#355
b11011 1
b1011101001 0
b11111111111111111111110100011100 :
b11111111111111111111110100000100 8
b11111111111111111111010100000100 ;
b11010001110011011101000000000000 7
b11111111111111011101010100011100 9
b110100011100 =
b11011 /
b11011 5
b11100 +
b11100 4
b11010 3
b100 ,
b100 6
b100111 ]
b1010011 \
1S
b10100011100110111010010010100111 '
b10100011100110111010010010100111 )
b11010001110011011101001001010011 &
b11010001110011011101001001010011 *
1(
0g
0.
1f
1"
#360
0f
0"
#365
b1001 1
b1110100 ]
b1001010011 0
b1111010 \
1S
b11100110111 :
b11100101001 8
b111100101000 ;
b1110011011101001001000000000000 7
b1001001111100110110 9
b11100110111 =
b1001 /
b1001 5
b10111 +
b10111 4
b1110 3
b1001 ,
b1001 6
0#
b11100110111010010010100111110100 '
b11100110111010010010100111110100 )
b1110011011101001001010011111010 &
b1110011011101001001010011111010 *
1g
1.
1f
1"
#370
0f
0"
#375
b1010 1
b1010011010 0
b11111111111111111111110111010010 :
b11111111111111111111110111011101 8
b11111111111111111111110111011100 ;
b11011101001001010011000000000000 7
b11111111111101010011010111010010 9
b110111010010 =
b1010 /
b1010 5
b10010 +
b10010 4
b11011 3
b11101 ,
b11101 6
b1101 \
1S
b11011 ]
1#
b10111010010010100111110100011011 '
b10111010010010100111110100011011 )
b11011101001001010011111010001101 &
b11011101001001010011111010001101 *
0(
1!
1f
1"
#380
0f
0"
#385
b11111 1
b1101011 ]
b1111001101 0
b1110101 \
1S
b10010010100 :
b10010000110 8
b10010000110 ;
b1001001010011111010000000000000 7
b11111010010010010100 9
b10010010100 =
b11111 /
b11111 5
b10100 +
b10100 4
b1001 3
b110 ,
b110 6
b10010010100111110100011011101011 '
b10010010100111110100011011101011 )
b1001001010011111010001101110101 &
b1001001010011111010001101110101 *
0g
0.
1f
1"
#390
0f
0"
#395
b10001 1
b1111001 ]
b1110101 0
b1111100 \
1S
b10100111110 :
b10100111010 8
b10100111010 ;
b1010011111010001101000000000000 7
b10001101010100111110 9
b10100111110 =
b10001 /
b10001 5
b11110 +
b11110 4
b1010 3
b11010 ,
b11010 6
0#
b10100111110100011011101011111001 '
b10100111110100011011101011111001 )
b1010011111010001101110101111100 &
b1010011111010001101110101111100 *
1g
1.
1f
1"
#400
0f
0"
#405
b1110 1
b1110111100 0
b11111111111111111111111110100011 :
b11111111111111111111111110111110 8
b11111111111111111111011110111110 ;
b11111010001101110101000000000000 7
b11111111111101110101111110100010 9
b111110100011 =
b1110 /
b1110 5
b11 +
b11 4
b11111 3
b11110 ,
b11110 6
b1001101 ]
b100110 \
1S
1#
b11110100011011101011111001001101 '
b11110100011011101011111001001101 )
b11111010001101110101111100100110 &
b11111010001101110101111100100110 *
1(
0g
0.
1f
1"
#410
0f
0"
#415
b1111 1
b1111100110 0
b111010 \
1S
b11111111111111111111100011011101 :
b11111111111111111111100011010011 8
b11111111111111111111100011010010 ;
b10001101110101111100000000000000 7
b11111111111101111100100011011100 9
b100011011101 =
b1111 /
b1111 5
b11101 +
b11101 4
b10001 3
b10011 ,
b10011 6
b1110100 ]
b11011101011111001001101110100 '
b11011101011111001001101110100 )
b10001101110101111100100110111010 &
b10001101110101111100100110111010 *
0!
1g
1.
1f
1"
#420
0f
0"
#425
b100 1
b100111010 0
b11101011111 :
b11101011101 8
b111101011100 ;
b1110101111100100110000000000000 7
b100110111101011110 9
b11101011111 =
b100 /
b100 5
b11111 +
b11111 4
b1110 3
b11101 ,
b11101 6
b11101 \
1S
b111010 ]
b11101011111001001101110100111010 '
b11101011111001001101110100111010 )
b1110101111100100110111010011101 &
b1110101111100100110111010011101 *
0(
1!
1f
1"
#430
0f
0"
#435
b10111 1
b111011101 0
b11111001001 :
b11111001110 8
b11111001110 ;
b1111100100110111010000000000000 7
b10111010111111001000 9
b11111001001 =
b10111 /
b10111 5
b1001 +
b1001 4
b1111 3
b1110 ,
b1110 6
b1010010 \
1S
b100101 ]
b11111001001101110100111010100101 '
b11111001001101110100111010100101 )
b1111100100110111010011101010010 &
b1111100100110111010011101010010 *
1(
0!
0g
0.
1f
1"
#440
0f
0"
#445
b10011 1
b11110010 0
b1001101110 :
b1001101001 8
b101001101000 ;
b100110111010011101000000000000 7
b10011101001001101110 9
b1001101110 =
b10011 /
b10011 5
b1110 +
b1110 4
b100 3
b1001 ,
b1001 6
b1100001 ]
b110000 \
1S
b1001101110100111010100101100001 '
b1001101110100111010100101100001 )
b100110111010011101010010110000 &
b100110111010011101010010110000 *
0(
1f
1"
#450
0f
0"
#455
b1010 1
b1010010000 0
b11111111111111111111101110100111 :
b11111111111111111111101110111000 8
b11111111111111111111001110111000 ;
b10111010011101010010000000000000 7
b11111111111101010010101110100110 9
b101110100111 =
b1010 /
b1010 5
b111 +
b111 4
b10111 3
b11000 ,
b11000 6
b110110 \
1S
b1101101 ]
0#
b1110100111010100101100001101101 '
b1110100111010100101100001101101 )
b10111010011101010010110000110110 &
b10111010011101010010110000110110 *
1(
1!
1f
1"
#460
0f
0"
#465
b10110 1
b110010110 0
b100010 \
1S
b11111111111111111111100111010100 :
b11111111111111111111100111011011 8
b11111111111111111111100111011010 ;
b10011101010010110000000000000000 7
b11111111111110110000000111010100 9
b100111010100 =
b10110 /
b10110 5
b10100 +
b10100 4
b10011 3
b11011 ,
b11011 6
b1000100 ]
b111010100101100001101101000100 '
b111010100101100001101101000100 )
b10011101010010110000110110100010 &
b10011101010010110000110110100010 *
0!
1f
1"
#470
0f
0"
#475
b110 1
b10110 ]
b110100010 0
b1011 \
1S
b10100101100 :
b10100110001 8
b110100110000 ;
b1010010110000110110000000000000 7
b110110010100101100 9
b10100101100 =
b110 /
b110 5
b1100 +
b1100 4
b1010 3
b10001 ,
b10001 6
b10100101100001101101000100010110 '
b10100101100001101101000100010110 )
b1010010110000110110100010001011 &
b1010010110000110110100010001011 *
1g
1.
1f
1"
#480
0f
0"
#485
b10100 1
b100001011 0
b11111111111111111111101100001101 :
b11111111111111111111101100000101 8
b11111111111111111111101100000100 ;
b10110000110110100010000000000000 7
b11111111111110100010101100001100 9
b101100001101 =
b10100 /
b10100 5
b1101 +
b1101 4
b10110 3
b101 ,
b101 6
b1000100 \
1S
b1001 ]
b1100001101101000100010110001001 '
b1100001101101000100010110001001 )
b10110000110110100010001011000100 &
b10110000110110100010001011000100 *
0(
1!
0g
0.
1f
1"
#490
0f
0"
#495
b10001 1
b1000100 0
b101000 \
1S
b1101101000 :
b1101100010 8
b1101100010 ;
b110110100010001011000000000000 7
b10001011001101101000 9
b1101101000 =
b10001 /
b10001 5
b1000 +
b1000 4
b110 3
b10 ,
b10 6
b1010000 ]
b1101101000100010110001001010000 '
b1101101000100010110001001010000 )
b110110100010001011000100101000 &
b110110100010001011000100101000 *
0!
1g
1.
1f
1"
#500
0f
0"
#505
b11000 1
b1000101000 0
b11111111111111111111101000100010 :
b11111111111111111111101000110100 8
b11111111111111111111001000110100 ;
b10100010001011000100000000000000 7
b11111111111111000100001000100010 9
b101000100010 =
b11000 /
b11000 5
b10 +
b10 4
b10100 3
b10100 ,
b10100 6
b111 \
1S
b1110 ]
1#
b1000100010110001001010000001110 '
b1000100010110001001010000001110 )
b10100010001011000100101000000111 &
b10100010001011000100101000000111 *
1(
1!
0g
0.
1f
1"
#510
0f
0"
#515
b101 1
b101000111 0
b11111111111111111111100010110001 :
b11111111111111111111100010100011 8
b11111111111111111111100010100010 ;
b10001011000100101000000000000000 7
b11111111111100101000100010110000 9
b100010110001 =
b101 /
b101 5
b10001 +
b10001 4
b10001 3
b11 ,
b11 6
b111010 ]
b1011101 \
1S
0#
b10110001001010000001110111010 '
b10110001001010000001110111010 )
b10001011000100101000000111011101 &
b10001011000100101000000111011101 *
0(
1g
1.
1f
1"
#520
0f
0"
#525
b0 1
b111101 0
b1000000 \
1S
b11111111111111111111110001001010 :
b11111111111111111111110001001110 8
b11111111111111111111010001001110 ;
b11000100101000000111000000000000 7
b11111111111100000111010001001010 9
b110001001010 =
b0 /
b0 5
b1010 +
b1010 4
b11000 3
b1110 ,
b1110 6
b0 ]
1#
b10001001010000001110111010000000 '
b10001001010000001110111010000000 )
b11000100101000000111011101000000 &
b11000100101000000111011101000000 *
0!
0g
0.
1f
1"
#530
0f
0"
#535
b11011 1
b1011100000 0
b1010000001 :
b1010000000 8
b1010000000 ;
b101000000111011101000000000000 7
b11011101101010000000 9
b1010000001 =
b11011 /
b11011 5
b1 +
b1 4
b101 3
b0 ,
b0 6
b110101 ]
b11010 \
1S
0#
b1010000001110111010000000110101 '
b1010000001110111010000000110101 )
b101000000111011101000000011010 &
b101000000111011101000000011010 *
1(
1g
1.
1f
1"
#540
0f
0"
#545
b1000 1
b1000011010 0
b1110111 :
b1101101 8
b100001101100 ;
b111011101000000000000000000 7
b1000000100001110110 9
b1110111 =
b1000 /
b1000 5
b10111 +
b10111 4
b0 3
b1101 ,
b1101 6
b1010010 ]
b101001 \
1S
b1110111010000000110101010010 '
b1110111010000000110101010010 )
b111011101000000011010101001 &
b111011101000000011010101001 *
0(
1f
1"
#550
0f
0"
#555
b11 1
b11001001 0
b11111111111111111111110111010000 :
b11111111111111111111110111010100 8
b11111111111111111111010111010100 ;
b11011101000000011010000000000000 7
b11111111111100011010010111010000 9
b110111010000 =
b11 /
b11 5
b10000 +
b10000 4
b11011 3
b10100 ,
b10100 6
b1000111 \
1S
b1111 ]
1#
b10111010000000110101010010001111 '
b10111010000000110101010010001111 )
b11011101000000011010101001000111 &
b11011101000000011010101001000111 *
1(
1!
0g
0.
1f
1"
#560
0f
0"
#565
b10101 1
b1 I
b101000111 0
b1 H
1^
0a
1`
0F
b1110011 \
1S
b10000000110 :
b10000000011 8
b110000000010 ;
b1000000011010101001000000000000 7
b10101001010000000110 9
b10000000110 =
b10101 /
b10101 5
b110 +
b110 4
b1000 3
b11 ,
b11 6
b0 B
b0 @
b1100111 ]
b10000000110101010010001111100111 '
b10000000110101010010001111100111 )
b1000000011010101001000111110011 &
b1000000011010101001000111110011 *
0!
1f
1"
#570
0f
0"
#575
b1000 1
b0 I
b1000110011 0
b110101010 :
b110111001 8
b100110111000 ;
b11010101001000111000000000000 7
b1000111000110101010 9
b110101010 =
b1000 /
b1000 5
b1010 +
b1010 4
b11 3
b11001 ,
b11001 6
b1110001 ]
b11 @
b101100 B
b1111000 \
1S
b0 H
0^
0`
b110101010010001111100111110001 '
b110101010010001111100111110001 )
b11010101001000111110011111000 &
b11010101001000111110011111000 *
0(
1g
1.
1f
1"
#580
0f
0"
