athanor_artifacts/fetch_fifo_err_unaligned_factored/gold_toggle.vcd
$date
	Tue Jul  7 22:07:55 2026
$end
$version
	Icarus Verilog
$end
$timescale
	1s
$end
$scope module tb_gold $end
$scope module uut $end
$var wire 1 ! aligned_is_compressed $end
$var wire 1 " clear_i $end
$var wire 1 # clk_i $end
$var wire 32 $ in_addr_i [31:0] $end
$var wire 1 % in_err_i $end
$var wire 32 & in_rdata_i [31:0] $end
$var wire 1 ' in_valid_i $end
$var wire 1 ( instr_addr_en $end
$var wire 1 ) out_ready_i $end
$var wire 1 * pop_fifo $end
$var wire 1 + rst_ni $end
$var wire 1 , unaligned_is_compressed $end
$var wire 1 - valid $end
$var wire 1 . valid_unaligned $end
$var wire 3 / valid_pushed [2:0] $end
$var wire 3 0 valid_popped [2:0] $end
$var wire 3 1 valid_d [2:0] $end
$var wire 1 2 unused_addr_in $end
$var wire 32 3 rdata_unaligned [31:0] $end
$var wire 96 4 rdata_d [95:0] $end
$var wire 32 5 rdata [31:0] $end
$var wire 32 6 out_addr_o [31:0] $end
$var wire 3 7 lowest_free_entry [2:0] $end
$var wire 31 8 instr_addr_next [31:1] $end
$var wire 31 9 instr_addr_d [31:1] $end
$var wire 1 : err_unaligned $end
$var wire 1 ; err_plus2 $end
$var wire 3 < err_d [2:0] $end
$var wire 1 = err $end
$var wire 3 > entry_en [2:0] $end
$var wire 2 ? busy_o [1:0] $end
$var wire 1 @ addr_incr_two $end
$var parameter 32 A DEPTH $end
$var parameter 32 B NUM_REQS $end
$var parameter 1 C ResetAll $end
$var reg 1 D _sv2v_0 $end
$var reg 3 E err_q [2:0] $end
$var reg 31 F instr_addr_q [31:1] $end
$var reg 1 G out_err_o $end
$var reg 1 H out_err_plus2_o $end
$var reg 32 I out_rdata_o [31:0] $end
$var reg 1 J out_valid_o $end
$var reg 96 K rdata_q [95:0] $end
$var reg 3 L valid_q [2:0] $end
$scope begin g_fifo_next[0] $end
$var parameter 2 M _gv_i_1 $end
$var parameter 32 N i $end
$scope begin g_ent0 $end
$upscope $end
$upscope $end
$scope begin g_fifo_next[1] $end
$var parameter 2 O _gv_i_1 $end
$var parameter 32 P i $end
$scope begin g_ent_others $end
$upscope $end
$upscope $end
$scope begin g_fifo_regs[0] $end
$var parameter 2 Q _gv_i_2 $end
$var parameter 32 R i $end
$scope begin g_rdata_nr $end
$upscope $end
$upscope $end
$scope begin g_fifo_regs[1] $end
$var parameter 2 S _gv_i_2 $end
$var parameter 32 T i $end
$scope begin g_rdata_nr $end
$upscope $end
$upscope $end
$scope begin g_fifo_regs[2] $end
$var parameter 3 U _gv_i_2 $end
$var parameter 32 V i $end
$scope begin g_rdata_nr $end
$upscope $end
$upscope $end
$scope begin g_instr_addr_nr $end
$upscope $end
$upscope $end
$upscope $end
$enddefinitions $end
$comment Show the parameter values. $end
$dumpall
b10 V
b10 U
b1 T
b1 S
b0 R
b0 Q
b1 P
b1 O
b0 N
b0 M
0C
b10 B
b11 A
$end
#0
$dumpvars
b0 L
bx K
0J
b0 I
0H
0G
bx F
bx E
0D
1@
b0 ?
b0 >
0=
b0 <
0;
0:
bx 9
bx 8
b1 7
bx0 6
b0 5
b0 4
b0 3
02
b0 1
b0 0
b0 /
0.
0-
1,
0+
0*
0)
0(
0'
b0 &
0%
b0 $
0#
0"
1!
$end
#5
1#
#10
0#
#15
1#
#20
0#
1+
#25
0@
1:
0!
0,
b10101011010000000000000000 3
1G
b1010101101 I
b111 <
1=
b10101011010000000000000000000000101010110100000000000000000000001010101101 4
b1010101101 5
1(
b10101011 9
1)
1%
b1010101101 &
b101010110 $
1"
1#
#30
0#
#35
b101010110 6
b10101101 8
b10101011 F
b1 0
b1 >
b10101011011011010000000000000000 3
b1 /
b10101011011011 9
0J
b10101011011011010000000000000000 I
b10101011011011010000000000000000101010110110110100000000000000001010101101101101 4
b1010101101101101 5
12
1-
0)
b1010101101101101 &
b101010110110111 $
1'
1#
#40
0#
#45
b101010110110110 6
b10101011011011 F
bx1 E
bx00000000000000001010101101101101 K
b0 >
b0 0
1*
b10101011011100 8
1@
1J
0G
b11011011011011010000000000101010 I
0:
1!
1,
b11011011011011010000000000101010 3
b10101011011011011010 9
b0 <
0=
b10101011011011011011010000000000101010110110110110110100000000001010101101101101101101 4
b1010101101101101101101 5
02
1)
0%
b1010101101101101101101 &
b101010110110110110100 $
1#
#50
0#
#55
b1 1
b1 >
b1 0
0*
b101010110110110110100 6
b10101011011011011011 8
b10101011011011011010 F
b1010101101101101101101010101 I
b11011011010101010000101010110110 3
b10101011011011011011010101010000101010110110110110110101010100001010101101101101101101010101 4
b1010101101101101101101010101 5
12
b10101011011011011011 9
b1010101101101101101101010101 &
b101010110110110110110101001 $
0"
1#
#60
0#
#65
1H
1;
b10 7
b101010110110110110110 6
b1 L
b10101011011011011011 F
bx0 E
bx00001010101101101101101101010101 K
b1 1
b10101011011011011100 9
b1 0
b10101011011011011100 8
1@
b0 >
0:
1!
1,
b11010101010001100000101010110110 3
b1 /
0(
1J
0G
b11010101010001100000101010110110 I
b111 <
0=
b101011011011011011010101010001101010110110110110110101010100011010101101101101101101010101000110 4
b1010101101101101101101010101 5
1-
0)
1%
b10101101101101101101010101000110 &
b1010110110110110110101010100111 $
0'
1#
#70
0#
#75
b1 1
b1 0
b1010001101001110000101010110110 I
b1 >
b1010001101001110000101010110110 3
b11 /
1(
1*
1.
b11011011011010101010001101001110110110110110101010100011010011101101101101101010101000110100111 4
02
1)
b1101101101101010101000110100111 &
b10110110110110101010100011010110 $
1'
1#
#80
0#
#85
b1 1
b1 >
b1 0
0@
1*
0,
1:
0;
0!
0H
1G
1=
b1101101101101010101000110100111 5
b10101011011011011110 9
b101010110110110111000 6
b10101011011011011110 8
b10101011011011011100 F
bx1 E
bx01101101101101010101000110100111 K
b1101101101101010101000110100111 I
b1101001111001010110110110110101 3
b11011010101010001101001111001010110110101010100011010011110010101101101010101000110100111100101 4
b1101101010101000110100111100101 &
b10110110101010100011010011110100 $
1#
#90
0#
#95
b1101101010101000110100111100101 I
b1101101010101000110100111100101 5
b10101011011011100000 9
b101010110110110111100 6
bx01101101010101000110100111100101 K
b10101011011011100000 8
b10101011011011011110 F
b11 1
b10 >
b11 0
b1111001011001000110110101010100 3
0(
0*
b0 <
b10101010001101001111001011001000101010100011010011110010110010001010101000110100111100101100100 4
12
0)
0%
b1010101000110100111100101100100 &
b10101010100011010011110010110101 $
1#
#100
0#
#105
b100 7
b1 ?
b11 L
bx01 E
bx0101010100011010011110010110010001101101010101000110100111100101 K
b1 0
b1 >
b1111001011001000110110101010100 3
b11 /
b0 1
1*
1.
b110 <
b10001101001111001011001000010010100011010011110010110010000100101010101000110100111100101100100 4
02
1(
b1010001101001111001011001000110 9
1)
1%
b1000110100111100101100100001001 &
b10100011010011110010110010001100 $
0'
1"
1#
#110
0#
#115
b111 <
b1 7
b10100111100101100100001001100100 I
b1000010011001001010011110010110 3
0.
b10100111100101100100001001100100 5
b0 ?
b10100011010011110010110010001100 6
b0 L
bx00 E
bx0101010100011010011110010110010001010101000110100111100101100100 K
b1010001101001111001011001001000 8
b1010001101001111001011001000110 F
b0 0
b1 /
b0 1
b0 >
b101001111001011001000010011001001010011110010110010000100110010010100111100101100100001001100100 4
12
b1010001101001111001011001001000 9
b10100111100101100100001001100100 &
b11010011110010110010000100111011 $
1'
0"
1#
#120
0#
#125
b1010001101001111001011001001010 9
b10100011010011110010110010010000 6
b1010001101001111001011001001010 8
b1010001101001111001011001001000 F
b1 1
b1 >
b1 0
b10011001001001001110010110010000 3
0(
0*
b11100101100100001001100100100100 I
b111001011001000010011001001001001110010110010000100110010010010011100101100100001001100100100100 4
b11100101100100001001100100100100 5
02
0)
b11100101100100001001100100100100 &
b11110010110010000100110010011000 $
1#
#130
0#
#135
b11 /
b10 7
1.
b1 L
bx01 E
bx0101010100011010011110010110010011100101100100001001100100100100 K
b1 >
b1010001101001111001011001001010 8
b1 0
0@
1:
0!
0,
b1001001001110101110010110010000 3
b0 1
1*
1G
b11100101100100001001100100100100 I
b0 <
1=
b11001000010011001001001001110100110010000100110010010010011101001100100001001100100100100111010 4
b11100101100100001001100100100100 5
1(
b1011001000010011001001001001011 9
1)
0%
b1100100001001100100100100111010 &
b10110010000100110010010010010110 $
1"
1#
#140
0#
#145
0*
0(
b1 7
0-
0J
b1001110100100100000100110010010 I
b1001100100100100111010010010 5
b10110010000100110010010010010110 6
b0 L
b1011001000010011001001001001101 8
b1011001000010011001001001001011 F
bx00 E
bx0101010100011010011110010110010001100100001001100100100100111010 K
b0 >
b0 0
b1001110100100100000100110010010 3
b0 /
b0 1
0.
b111 <
b10011001001001001110100100100000100110010010010011101001001000001001100100100100111010010010 4
12
b1011001000010011001001001001101 9
1%
b1001100100100100111010010010 &
b10000100110010010010011101000101 $
0'
0"
1#
#150
0#
#155
b1 0
b10100100101011010110010010010011 I
b1 >
b10100100101011010110010010010011 3
b1 /
b11001001001001110100100101011010110010010010011101001001010110101100100100100111010010010101101 4
b1100100100100111010010010101101 5
1-
1(
b11001001001001110100100101101 9
0)
b1100100100100111010010010101101 &
b110010010010011101001001011011 $
1'
1"
1#
#160
0#
#165
b110010010010011101001001011010 6
b11001001001001110100100101111 8
b11001001001001110100100101101 F
bx01 E
bx0101010100011010011110010110010001100100100100111010010010101101 K
b101011011000110010010011101001 I
b101011011000110010010011101001 3
b1 1
b1001001110100100101011011000110010010011101001001010110110001100100100111010010010101101100011 4
b100100111010010010101101100011 5
0(
b11001001001001110100100101111 9
1)
b100100111010010010101101100011 &
b10010010011101001001010110111111 $
0"
1#
#170
0#
#175
b1 >
b11 /
b1 0
1*
b10 7
1J
1.
b1 L
bx0101010100011010011110010110010000100100111010010010101101100011 K
b11011000111011010010010011101001 I
b11011000111011010010010011101001 3
b0 1
b1110100100101011011000111011010011101001001010110110001110110100111010010010101101100011101101 4
b100100111010010010101101100011 5
1(
b1001110100100101011011000111100 9
b111010010010101101100011101101 &
b10011101001001010110110001111001 $
1"
1#
#180
0#
#185
1,
0:
b1 7
0G
0=
0-
b10010010101101100011101101101011 5
b10011101001001010110110001111000 6
b0 L
b1001110100100101011011000111110 8
b1001110100100101011011000111100 F
bx0101010100011010011110010110010000111010010010101101100011101101 K
b0 >
b0 0
b10010010101101100011101101101011 I
b111011011010111001001010110110 3
0J
b0 /
0*
b100100101011011000111011010010 9
0.
b0 <
b100100101011011000111011011010111001001010110110001110110110101110010010101101100011101101101011 4
0)
0%
b10010010101101100011101101101011 &
b1001001010110110001110110100101 $
0'
1#
#190
0#
#195
b1001001010110110001110110100100 6
b100100101011011000111011010100 8
b100100101011011000111011010010 F
1*
b0 >
1:
0,
b11011010110000111010110110001110 3
b1 /
1J
1G
b10101101100011101101101011000011 I
b111 <
1=
b101011011000111011011010110000111010110110001110110110101100001110101101100011101101101011000011 4
b10101101100011101101101011000011 5
02
1-
1(
b100100101011011000111011010100 9
1)
1%
b10101101100011101101101011000011 &
b1010110110001110110110101110000 $
1'
0"
1#
#200
0#
#205
b1001001010110110001110110101000 6
b100100101011011000111011010100 F
b1 >
b1 0
0*
b100100101011011000111011010101 8
1@
0:
1,
1!
b10110000111010100110001110110110 3
0G
b1100011101101101011000011101010 I
b0 <
0=
b11000111011011010110000111010100110001110110110101100001110101001100011101101101011000011101010 4
b1100011101101101011000011101010 5
12
b1011000111011011010110000110011 9
0%
b1100011101101101011000011101010 &
b10110001110110110101100001100111 $
1"
1#
#210
0#
#215
b10110001110110110101100001100110 6
bx00 E
bx0101010100011010011110010110010001100011101101101011000011101010 K
b1011000111011011010110000110100 8
b1011000111011011010110000110011 F
b111010100010001110110110101100 3
b111010100010001110110110101100 I
b111011011010110000111010101011 9
b111011011010110000111010100010001110110110101100001110101000100011101101101011000011101010001000 4
b11101101101011000011101010001000 5
0)
b11101101101011000011101010001000 &
b1110110110101100001110101010111 $
1#
#220
0#
#225
b1110110110101100001110101010110 6
b111011011010110000111010101100 8
b111011011010110000111010101011 F
bx0101010100011010011110010110010011101101101011000011101010001000 K
b0 0
b10100010000111110110101100001110 I
b0 >
0!
b10100010000111110110101100001110 3
b0 /
0*
b1011010110000111010100010001101 9
0J
b11010110000111010100010000111110110101100001110101000100001111101101011000011101010001000011111 4
b1101011000011101010001000011111 5
0-
1)
b1101011000011101010001000011111 &
b10110101100001110101000100011011 $
0'
1#
#230
0#
#235
b10110101100001110101000100011010 6
b1011010110000111010100010001101 F
b1 1
b1 0
b1011010110000111010100010001111 8
0@
1G
b10000111110001101100001110101000 I
0*
b1 >
1:
0,
b10000111110001101100001110101000 3
b1 /
0J
b111 <
1=
b110000111010100010000111110001101100001110101000100001111100011011000011101010001000011111000110 4
b11000011101010001000011111000110 5
02
1-
0(
b1011010110000111010100010001111 9
1%
b11000011101010001000011111000110 &
b1100001110101000100001111110110 $
1'
0"
1#
#240
0#
#245
b11 1
b11 0
b10 >
b11 /
b10 7
1.
b1 L
bx01 E
bx0101010100011010011110010110010011000011101010001000011111000110 K
b1011010110000111010100010001111 9
b1011010110000111010100010001111 8
0@
1J
1G
b11110001101000001100001110101000 I
1:
0!
0,
b11110001101000001100001110101000 3
b0 <
1=
b111010100010000111110001101000001110101000100001111100011010000011101010001000011111000110100000 4
b11000011101010001000011111000110 5
0)
0%
b11101010001000011111000110100000 &
b1110101000100001111100011000110 $
1#
#250
0#
#255
b111 /
b100 7
b1 ?
b11 L
bx1110101000100001111100011010000011000011101010001000011111000110 K
b11 1
b111 >
b11 0
b11110001101000001100001110101000 I
b11110001101000001100001110101000 3
1(
1*
b100010000111110001101000000101001000100001111100011010000001010011101010001000011111000110100000 4
12
1)
b10001000011111000110100000010100 &
b1000100001111100011010000011101 $
1#
#260
0#
#265
1@
1!
1,
0G
b1101000000101001110101000100001 I
0:
b1101000000101001110101000100001 3
0=
b11101010001000011111000110100000 5
b1011010110000111010100010010000 9
b10110101100001110101000100011110 6
b1011010110000111010100010010000 8
b1011010110000111010100010001111 F
b0 E
b100010000111110001101000000101001000100001111100011010000001010011101010001000011111000110100000 K
b1 1
b1 0
b11 /
b1 >
b111110001101000000101000100110001111100011010000001010001001110001000011111000110100000010100 4
b11111000110100000010100010011 &
b1111100011010000001010010001 $
0'
1#
#270
0#
#275
b10 7
b1000100110010101000100001111100 3
b10001000011111000110100000010100 5
b10001000011111000110100000010100 I
b0 ?
b10110101100001110101000100100000 6
b1 L
b100010000111110001101000000101001000100001111100011010000001010010001000011111000110100000010100 K
b1011010110000111010100010010001 8
b1011010110000111010100010010000 F
b11 0
b11 /
b0 1
0*
b10 >
b110001101000000101000100110010101100011010000001010001001100101011000110100000010100010011001010 4
02
b1110001101000000101000100111110 9
0)
b11000110100000010100010011001010 &
b11100011010000001010001001111100 $
1'
1"
1#
#280
0#
#285
b0 >
1*
b0 0
1:
0@
0!
0,
b1 /
b1 7
1G
b10100000010100010011001010011011 I
0.
b10100000010100010011001010011011 5
1=
b11100011010000001010001001111100 6
b0 L
b1110001101000000101000101000000 8
b1110001101000000101000100111110 F
b100010000111110001101000000101001100011010000001010001001100101010001000011111000110100000010100 K
0;
b110010100110111010000001010001 3
b1101000000101000100110010101011 9
b111 <
b101000000101000100110010100110111010000001010001001100101001101110100000010100010011001010011011 4
12
1)
1%
b10100000010100010011001010011011 &
b11010000001010001001100101010111 $
1#
#290
0#
#295
b1 >
b1 0
0*
0J
b11010000001010001001100101010110 6
b1101000000101000100110010101101 8
b1101000000101000100110010101011 F
b10100110111110100001010001001100 3
b10100110111110100001010001001100 I
b101000100110010100110110011 9
b101000100110010100110111110100001010001001100101001101111101000010100010011001010011011111010 4
b10100010011001010011011111010 5
02
b10100010011001010011011111010 &
b1010001001100101001101100110 $
1#
#300
0#
#305
b1010001001100101001101100110 6
b101000100110010100110110011 F
b1 E
b100010000111110001101000000101001100011010000001010001001100101000010100010011001010011011111010 K
b0 0
b101000100110010100110110100 8
1@
0G
b10111110101110100001001100101001 I
b0 >
0:
1!
1,
b10111110101110100001001100101001 3
b0 /
b1000100110010100110111110100000 9
b0 <
0=
b100110010100110111110101110100001001100101001101111101011101000010011001010011011111010111010 4
b10011001010011011111010111010 5
12
0-
0)
0%
b10011001010011011111010111010 &
b10001001100101001101111101000001 $
0'
1#
#310
0#
#315
b10001001100101001101111101000000 6
b1000100110010100110111110100000 F
b0 0
b1000100110010100110111110100010 8
0@
1G
b11001010011011111010111010001010 I
1*
b0 >
1:
0!
0,
b10101110100010101100101001101111 3
b1 /
b110010100110111110101110101100 9
1J
b111 <
1=
b110010100110111110101110100010101100101001101111101011101000101011001010011011111010111010001010 4
b11001010011011111010111010001010 5
02
1-
1)
1%
b11001010011011111010111010001010 &
b1100101001101111101011101011000 $
1'
1#
#320
0#
#325
b1100101001101111101011101011000 6
b110010100110111110101110101110 8
b110010100110111110101110101100 F
0:
b10100010101001111001101111101011 3
0G
b10011011111010111010001010100111 I
b0 <
0=
b100110111110101110100010101001111001101111101011101000101010011110011011111010111010001010100111 4
b10011011111010111010001010100111 5
12
b110010100110111110101110101110 9
0%
b10011011111010111010001010100111 &
b1001101111101011101000101001101 $
0"
1#
#330
0#
#335
b110010100110111110101110110000 9
b1100101001101111101011101011100 6
b110010100110111110101110110000 8
b110010100110111110101110101110 F
b1 1
b1 >
b1 0
1:
b10101001110100011111101011101000 3
0(
0*
1G
b11111010111010001010100111010001 I
b111 <
1=
b111110101110100010101001110100011111101011101000101010011101000111111010111010001010100111010001 4
b11111010111010001010100111010001 5
0)
1%
b11111010111010001010100111010001 &
b1111101011101000101010011110111 $
1#
#340
0#
#345
b10 7
b1 L
b100010000111110001101000000101001100011010000001010001001100101011111010111010001010100111010001 K
b0 1
b0 0
b0 >
1:
0,
b1110100011100111111101011101000 3
b1 /
1(
1*
1J
1G
b11111010111010001010100111010001 I
b0 <
1=
b101110100010101001110100011100111011101000101010011101000111001110111010001010100111010001110011 4
b11111010111010001010100111010001 5
1-
1)
0%
b10111010001010100111010001110011 &
b1011101000101010011101000011001 $
0'
1#
#350
0#
#355
0*
1@
1!
1,
0:
b1 7
0G
b10001010100111010001110011011101 I
b10001010100111010001110011011101 5
0=
b1100101001101111101011101100000 6
b0 L
b110010100110111110101110110001 8
b110010100110111110101110110000 F
b1 >
b1 0
b11100110111011000101010011101 3
b1 /
0.
b100010101001110100011100110111011000101010011101000111001101110110001010100111010001110011011101 4
b100010101001110100011100100111 9
b10001010100111010001110011011101 &
b1000101010011101000111001001111 $
1'
1"
1#
#360
0#
#365
0@
0J
b1000101010011101000111001001110 6
b100010101001110100011100101001 8
b100010101001110100011100100111 F
b0 E
b100010000111110001101000000101001100011010000001010001001100101010001010100111010001110011011101 K
0,
b110111010010011010011101000111 3
b110111010010011010011101000111 I
b101001110100011100110111000011 9
b101001110100011100110111010010011010011101000111001101110100100110100111010001110011011101001001 4
b10100111010001110011011101001001 5
02
0)
b10100111010001110011011101001001 &
b1010011101000111001101110000110 $
1#
#370
0#
#375
b1010011101000111001101110000110 6
b100010000111110001101000000101001100011010000001010001001100101010100111010001110011011101001001 K
b101001110100011100110111000101 8
b101001110100011100110111000011 F
1G
b11010010010100111101000111001101 I
1:
0!
b11010010010100111101000111001101 3
b1 1
b111 <
1=
b110100011100110111010010010100111101000111001101110100100101001111010001110011011101001001010011 4
b11010001110011011101001001010011 5
0(
b101001110100011100110111000101 9
1)
1%
b11010001110011011101001001010011 &
b11101000111001101110100100001010 $
0"
1#
#380
0#
#385
0*
b10 7
0J
b1 L
b1 E
b100010000111110001101000000101001100011010000001010001001100101011010001110011011101001001010011 K
b1 0
b101001110100011100110111000101 8
0@
1G
b10010100111110101101000111001101 I
b0 >
1:
0,
0!
b10010100111110101101000111001101 3
b1 /
b0 1
b0 <
1=
b11100110111010010010100111110100111001101110100100101001111101001110011011101001001010011111010 4
b11010001110011011101001001010011 5
12
1-
1(
b11100110111010010010100101100 9
0%
b1110011011101001001010011111010 &
b111001101110100100101001011001 $
0'
1"
1#
#390
0#
#395
b1 7
b11011101001001010011111010001101 5
b111001101110100100101001011000 6
b0 L
b11100110111010010010100101110 8
b11100110111010010010100101100 F
b1 0
b11011101001001010011111010001101 I
b1 >
b111110100011011101110100100101 3
1J
b1 /
b110111010010010100111110110001 9
0.
b111 <
b110111010010010100111110100011011101110100100101001111101000110111011101001001010011111010001101 4
0)
1%
b11011101001001010011111010001101 &
b1101110100100101001111101100011 $
1'
1#
#400
0#
#405
0J
b1101110100100101001111101100010 6
b110111010010010100111110110011 8
b110111010010010100111110110001 F
b100010000111110001101000000101001100011010000001010001001100101011011101001001010011111010001101 K
b1 >
b1 0
b10100011011101010100100101001111 3
b1 1
0*
b10100011011101010100100101001111 I
b10010010100111110100011011101010100100101001111101000110111010101001001010011111010001101110101 4
b1001001010011111010001101110101 5
02
0(
b110111010010010100111110110011 9
1)
b1001001010011111010001101110101 &
b10100100101001111101000110011100 $
0"
1#
#410
0#
#415
b1 >
b11 /
b1 0
1*
b10 7
1J
1.
b1 L
b100010000111110001101000000101001100011010000001010001001100101001001001010011111010001101110101 K
b11011101011111000100100101001111 I
b11011101011111000100100101001111 3
b0 1
b10100111110100011011101011111000101001111101000110111010111110001010011111010001101110101111100 4
b1001001010011111010001101110101 5
12
1(
b10100111110100011011101001100 9
b1010011111010001101110101111100 &
b101001111101000110111010011001 $
1"
1#
#420
0#
#425
b1 7
0-
b11111010001101110101111100100110 5
b101001111101000110111010011000 6
b0 L
b10100111110100011011101001110 8
b10100111110100011011101001100 F
b100010000111110001101000000101001100011010000001010001001100101001010011111010001101110101111100 K
b0 >
b0 0
b11111010001101110101111100100110 I
b1011111001001101111101000110111 3
0J
b0 /
b0 1
0(
0*
0.
b111110100011011101011111001001101111101000110111010111110010011011111010001101110101111100100110 4
b10100111110100011011101001110 9
0)
b11111010001101110101111100100110 &
b1111101000110111010111110111011 $
0'
0"
1#
#430
0#
#435
b1 0
b10100111110100011011101001101 8
1@
0*
b1 >
0:
1!
b11001001101110101000110111010111 3
b1 /
1J
0G
b10001101110101111100100110111010 I
b0 <
0=
b100011011101011111001001101110101000110111010111110010011011101010001101110101111100100110111010 4
b10001101110101111100100110111010 5
02
1-
1(
b100011011101011111001001111010 9
1)
0%
b10001101110101111100100110111010 &
b1000110111010111110010011110100 $
1'
1"
1#
#440
0#
#445
b1000110111010111110010011110100 6
b100011011101011111001001111011 8
b100011011101011111001001111010 F
b0 E
b100010000111110001101000000101001100011010000001010001001100101010001101110101111100100110111010 K
1,
b1101110100111010111010111110010 3
b1110101111100100110111010011101 I
b1011101011111001001101110110010 9
b11101011111001001101110100111010111010111110010011011101001110101110101111100100110111010011101 4
b1110101111100100110111010011101 5
b1110101111100100110111010011101 &
b10111010111110010011011101100100 $
1#
#450
0#
#455
b10111010111110010011011101100100 6
b100010000111110001101000000101001100011010000001010001001100101001110101111100100110111010011101 K
b1011101011111001001101110110010 F
b1011101011111001001101110110100 8
0@
1:
0!
0,
b10100111010100100111110010011011 3
b1 1
0(
1G
b1111100100110111010011101010010 I
b111 <
1=
b11111001001101110100111010100100111110010011011101001110101001001111100100110111010011101010010 4
b1111100100110111010011101010010 5
b1011101011111001001101110110100 9
0)
1%
b1111100100110111010011101010010 &
b10111110010011011101001110000010 $
0"
1#
#460
0#
#465
b10 7
b1 L
b1 E
b100010000111110001101000000101001100011010000001010001001100101001111100100110111010011101010010 K
b0 1
b0 0
b0 >
b11010100101100000111110010011011 3
b1 /
1(
1*
1J
b1111100100110111010011101010010 I
b1001101110100111010100101100000010011011101001110101001011000000100110111010011101010010110000 4
b1111100100110111010011101010010 5
1-
1)
b100110111010011101010010110000 &
b10010011011101001110101001110100 $
0'
1#
#470
0#
#475
b1 7
b10111010011101010010110000110110 I
b10111010011101010010110000110110 5
b1011101011111001001101110110110 9
b10111010111110010011011101101000 6
b0 L
b1011101011111001001101110110110 8
b1011101011111001001101110110100 F
b0 1
b0 >
b0 0
b101100001101101011101001110101 3
b1 /
0.
b101110100111010100101100001101101011101001110101001011000011011010111010011101010010110000110110 4
b10111010011101010010110000110110 &
b11011101001110101001011000110110 $
1'
1#
#480
0#
#485
b10111010111110010011011101101100 6
b1011101011111001001101110110110 F
b1 1
b1 >
b1011101011111001001101110110111 9
b1011101011111001001101110110111 8
b1 0
1@
0:
1!
b1101101000101001110101001011 3
0(
0*
0G
b10011101010010110000110110100010 I
b0 <
0=
b100111010100101100001101101000101001110101001011000011011010001010011101010010110000110110100010 4
b10011101010010110000110110100010 5
12
0)
0%
b10011101010010110000110110100010 &
b1001110101001011000011011111111 $
1#
#490
0#
#495
b11 /
b10 7
1.
b1 L
b0 E
b100010000111110001101000000101001100011010000001010001001100101010011101010010110000110110100010 K
b10 >
b11 0
0*
b1011101011111001001101110110111 8
1@
1!
b1101000100010111001110101001011 3
b0 1
b10011101010010110000110110100010 I
b10100101100001101101000100010110101001011000011011010001000101101010010110000110110100010001011 4
b10011101010010110000110110100010 5
02
1(
b1010100101100001101101000110101 9
1)
b1010010110000110110100010001011 &
b10101001011000011011010001101010 $
1"
1#
#500
0#
#505
0!
0(
b1 7
b10110000110110100010001011000100 5
1=
0-
0@
0J
0H
1G
b100010110001001011000011011010 I
b10101001011000011011010001101010 6
b0 L
b1010100101100001101101000110111 8
b1010100101100001101101000110101 F
b100010000111110001101000000101000101001011000011011010001000101110011101010010110000110110100010 K
b0 0
b0 >
1:
0;
b100010110001001011000011011010 3
b0 /
b0 1
0.
b111 <
b101100001101101000100010110001001011000011011010001000101100010010110000110110100010001011000100 4
b1010100101100001101101000110111 9
1%
b10110000110110100010001011000100 &
b1011000011011010001000101010010 $
0'
0"
1#
#510
0#
#515
b1 0
b1010100101100001101101000110110 8
1@
1J
0G
b10110001001010000011011010001000 I
b1 >
0:
1!
1,
b10110001001010000011011010001000 3
b1 /
b0 <
0=
b1101101000100010110001001010000011011010001000101100010010100000110110100010001011000100101000 4
b110110100010001011000100101000 5
12
1-
1(
b1101101000100010110001010010 9
0)
0%
b110110100010001011000100101000 &
b11011010001000101100010100101 $
1'
1"
1#
#520
0#
#525
0@
b11011010001000101100010100100 6
b1101101000100010110001010100 8
b1101101000100010110001010010 F
b100010000111110001101000000101000101001011000011011010001000101100110110100010001011000100101000 K
b0 >
b0 0
b10100010001011000100101000000111 I
0!
b1001010000001111010001000101100 3
b0 1
1*
b101000100010110001001010000001111010001000101100010010100000011110100010001011000100101000000111 4
b10100010001011000100101000000111 5
1(
b1101101000100010110001010100 9
1)
b10100010001011000100101000000111 &
b11010001000101100010010100110001 $
0"
1#
#530
0#
#535
b11011010001000101100010101000 6
b1101101000100010110001010100 F
b1 >
b1 0
0*
b1101101000100010110001010101 8
1@
1!
b10000001110111011000101100010010 3
b10001011000100101000000111011101 I
b100010110001001010000001110111011000101100010010100000011101110110001011000100101000000111011101 4
b10001011000100101000000111011101 5
b100010110001001010000001101110 9
b10001011000100101000000111011101 &
b1000101100010010100000011011101 $
1"
1#
#540
0#
#545
b1000101100010010100000011011100 6
b100010110001001010000001101111 8
b100010110001001010000001101110 F
b100010000111110001101000000101000101001011000011011010001000101110001011000100101000000111011101 K
b0 0
b0 >
b1110111010000001100010010100000 3
b0 /
b0 1
0(
0J
b11000100101000000111011101000000 I
b110001001010000001110111010000001100010010100000011101110100000011000100101000000111011101000000 4
b11000100101000000111011101000000 5
02
0-
b100010110001001010000001101111 9
0)
b11000100101000000111011101000000 &
b1100010010100000011101110010100 $
0'
0"
1#
#550
0#
#555
1*
b0 0
b100010110001001010000001110000 8
0@
b0 >
1:
0!
0,
b11010000000110100010100000011101 3
b1 /
1J
1G
b101000000111011101000000011010 I
b111 <
1=
b1010000001110111010000000110100010100000011101110100000001101000101000000111011101000000011010 4
b101000000111011101000000011010 5
1-
1(
b1001010000001110111010000011100 9
1)
1%
b101000000111011101000000011010 &
b10010100000011101110100000111000 $
1'
1"
1#
#560
0#
#565
b10010100000011101110100000111000 6
b1001010000001110111010000011100 F
b1 >
b1 0
0*
b1001010000001110111010000011101 8
1@
0:
1!
1,
b110101010010000011101110100 3
0G
b111011101000000011010101001 I
b1110111010000000110110001 9
b0 <
0=
b1110111010000000110101010010000011101110100000001101010100100000111011101000000011010101001 4
b111011101000000011010101001 5
0%
b111011101000000011010101001 &
b11101110100000001101100010 $
1#
#570
0#
#575
0J
b11101110100000001101100010 6
b100010000111110001101000000101000101001011000011011010001000101100000111011101000000011010101001 K
b1110111010000000110110001 F
b1110111010000000110110011 8
0@
1:
0,
0!
b10101010010001111101110100000001 3
b1 1
0(
1G
b10101010010001111101110100000001 I
b111 <
1=
b110111010000000110101010010001111101110100000001101010100100011111011101000000011010101001000111 4
b11011101000000011010101001000111 5
b1110111010000000110110011 9
0)
1%
b11011101000000011010101001000111 &
b11101110100000001101010100010100 $
0"
1#
#580
0#
#585
b10 7
b1 L
b1 E
b100010000111110001101000000101000101001011000011011010001000101111011101000000011010101001000111 K
b1 1
b1 0
b10010001111100111101110100000001 I
b0 >
b10010001111100111101110100000001 3
b1 /
b10000000110101010010001111100110100000001101010100100011111001101000000011010101001000111110011 4
b11011101000000011010101001000111 5
12
1-
1)
b1000000011010101001000111110011 &
b10100000001101010100100011000001 $
0'
1#
#590
0#
#595
b1 0
1*
b1111100111110001101110100000001 I
b1 >
b1111100111110001101110100000001 3
1J
b11 /
b0 1
1.
b110101010010001111100111110000001101010100100011111001111100000011010101001000111110011111000 4
1(
b110101010010001111100100010 9
b11010101001000111110011111000 &
b1101010100100011111001000101 $
1'
1"
1#
#600
0#
